Y86-64-Single-Cycle/bin/wave.vcd
$date
	Wed Dec  6 18:22:36 2023
$end
$version
	Icarus Verilog
$end
$timescale
	1s
$end
$scope module arch_tb $end
$var reg 1 ! clk $end
$scope module arch_inst $end
$var wire 1 ! clk $end
$var wire 1 " imem_error $end
$var wire 1 # instr_valid $end
$var wire 1 $ pCnd $end
$var wire 4 % pIcode [3:0] $end
$var wire 64 & pValC [63:0] $end
$var wire 64 ' pValM [63:0] $end
$var wire 64 ( pValP [63:0] $end
$var wire 64 ) valP [63:0] $end
$var wire 64 * valM [63:0] $end
$var wire 64 + valE [63:0] $end
$var wire 64 , valC [63:0] $end
$var wire 64 - valB [63:0] $end
$var wire 64 . valA [63:0] $end
$var wire 3 / stat [2:0] $end
$var wire 64 0 rsp [63:0] $end
$var wire 64 1 rsi [63:0] $end
$var wire 64 2 rdx [63:0] $end
$var wire 64 3 rdi [63:0] $end
$var wire 64 4 rcx [63:0] $end
$var wire 64 5 rbx [63:0] $end
$var wire 64 6 rbp [63:0] $end
$var wire 64 7 rax [63:0] $end
$var wire 4 8 rB [3:0] $end
$var wire 4 9 rA [3:0] $end
$var wire 64 : r9 [63:0] $end
$var wire 64 ; r8 [63:0] $end
$var wire 64 < r14 [63:0] $end
$var wire 64 = r13 [63:0] $end
$var wire 64 > r12 [63:0] $end
$var wire 64 ? r11 [63:0] $end
$var wire 64 @ r10 [63:0] $end
$var wire 1 A memWrite $end
$var wire 1 B memRead $end
$var wire 64 C memData [63:0] $end
$var wire 64 D memAddr [63:0] $end
$var wire 4 E ifun [3:0] $end
$var wire 4 F icode [3:0] $end
$var wire 1 G dmem_error $end
$var wire 2 H aluFun [1:0] $end
$var wire 64 I aluB [63:0] $end
$var wire 64 J aluA [63:0] $end
$var wire 1 K ZF $end
$var wire 1 L SF $end
$var wire 64 M PCaddress [63:0] $end
$var wire 1 N OF $end
$var wire 1 O Cnd $end
$scope module u_ALU $end
$var wire 4 P icode [3:0] $end
$var wire 2 Q aluFun [1:0] $end
$var wire 64 R aluB [63:0] $end
$var wire 64 S aluA [63:0] $end
$var reg 1 N OF $end
$var reg 1 L SF $end
$var reg 1 K ZF $end
$var reg 64 T valE [63:0] $end
$upscope $end
$scope module u_ALU_A $end
$var wire 64 U valC [63:0] $end
$var wire 64 V valA [63:0] $end
$var wire 4 W icode [3:0] $end
$var reg 64 X aluA [63:0] $end
$upscope $end
$scope module u_ALU_B $end
$var wire 64 Y valB [63:0] $end
$var wire 4 Z icode [3:0] $end
$var reg 64 [ aluB [63:0] $end
$upscope $end
$scope module u_ALU_fun $end
$var wire 4 \ ifun [3:0] $end
$var wire 4 ] icode [3:0] $end
$var reg 2 ^ aluFun [1:0] $end
$upscope $end
$scope module u_CC $end
$var wire 1 N OF $end
$var wire 1 L SF $end
$var wire 1 K ZF $end
$var wire 4 _ ifun [3:0] $end
$var reg 1 O Cnd $end
$upscope $end
$scope module u_InstMemory $end
$var wire 64 ` valC [63:0] $end
$var wire 3 a stat [2:0] $end
$var wire 80 b instruction [79:0] $end
$var wire 64 c PCaddress [63:0] $end
$var reg 1 d Halt $end
$var reg 4 e icode [3:0] $end
$var reg 4 f ifun [3:0] $end
$var reg 4 g rA [3:0] $end
$var reg 4 h rB [3:0] $end
$var reg 64 i valC_litend [63:0] $end
$upscope $end
$scope module u_Mem $end
$var wire 1 A memWrite $end
$var wire 1 B memRead $end
$var wire 64 j memData [63:0] $end
$var wire 64 k memAddr [63:0] $end
$var reg 1 G dmem_error $end
$var reg 64 l valM [63:0] $end
$upscope $end
$scope module u_MemAddr $end
$var wire 4 m icode [3:0] $end
$var wire 64 n valE [63:0] $end
$var wire 64 o valA [63:0] $end
$var reg 64 p memAddr [63:0] $end
$upscope $end
$scope module u_MemControl $end
$var wire 4 q icode [3:0] $end
$var reg 1 B memRead $end
$var reg 1 A memWrite $end
$upscope $end
$scope module u_MemData $end
$var wire 4 r icode [3:0] $end
$var wire 64 s valP [63:0] $end
$var wire 64 t valA [63:0] $end
$var reg 64 u memData [63:0] $end
$upscope $end
$scope module u_PC $end
$var wire 1 ! clk $end
$var wire 1 $ pCnd $end
$var wire 4 v pIcode [3:0] $end
$var wire 64 w pValC [63:0] $end
$var wire 64 x pValM [63:0] $end
$var wire 64 y pValP [63:0] $end
$var wire 3 z stat [2:0] $end
$var reg 1 { Halt $end
$var reg 64 | PCaddress [63:0] $end
$upscope $end
$scope module u_PCIncre $end
$var wire 64 } PCaddress [63:0] $end
$var wire 4 ~ icode [3:0] $end
$var reg 64 !" valP [63:0] $end
$upscope $end
$scope module u_Regs $end
$var wire 1 O Cnd $end
$var wire 1 ! clk $end
$var wire 4 "" icode [3:0] $end
$var wire 64 #" r10 [63:0] $end
$var wire 64 $" r11 [63:0] $end
$var wire 64 %" r12 [63:0] $end
$var wire 64 &" r13 [63:0] $end
$var wire 64 '" r14 [63:0] $end
$var wire 64 (" r8 [63:0] $end
$var wire 64 )" r9 [63:0] $end
$var wire 4 *" rA [3:0] $end
$var wire 4 +" rB [3:0] $end
$var wire 64 ," rax [63:0] $end
$var wire 64 -" rbp [63:0] $end
$var wire 64 ." rbx [63:0] $end
$var wire 64 /" rcx [63:0] $end
$var wire 64 0" rdi [63:0] $end
$var wire 64 1" rdx [63:0] $end
$var wire 64 2" rsi [63:0] $end
$var wire 64 3" rsp [63:0] $end
$var wire 64 4" valE [63:0] $end
$var wire 64 5" valM [63:0] $end
$var reg 64 6" valA [63:0] $end
$var reg 64 7" valB [63:0] $end
$upscope $end
$scope module u_Stat $end
$var wire 1 G dmem_error $end
$var wire 4 8" icode [3:0] $end
$var wire 1 " imem_error $end
$var wire 1 # instr_valid $end
$var reg 3 9" stat [2:0] $end
$upscope $end
$upscope $end
$upscope $end
$enddefinitions $end
#0
$dumpvars
b1 9"
b11 8"
bx 7"
bx 6"
bx 5"
b110000 4"
b0 3"
b0 2"
b0 1"
b0 0"
b0 /"
b0 ."
b0 -"
b0 ,"
b100 +"
b1111 *"
b0 )"
b0 ("
b0 '"
b0 &"
b0 %"
b0 $"
b0 #"
b11 ""
b1010 !"
b11 ~
b0 }
b0 |
0{
b1 z
b1010 y
bx x
b110000 w
b11 v
bx u
bx t
b1010 s
b11 r
b11 q
bx p
bx o
b110000 n
b11 m
bx l
bx k
bx j
b11000000000000000000000000000000000000000000000000000000000000 i
b100 h
b1111 g
b0 f
b11 e
0d
b0 c
b110000111101000011000000000000000000000000000000000000000000000000000000000000 b
b1 a
b110000 `
b0 _
b0 ^
b11 ]
b0 \
b0 [
b11 Z
bx Y
b110000 X
b11 W
bx V
b110000 U
b110000 T
b110000 S
b0 R
b0 Q
b11 P
1O
0N
b0 M
0L
1K
b110000 J
b0 I
b0 H
xG
b11 F
b0 E
bx D
bx C
0B
0A
b0 @
b0 ?
b0 >
b0 =
b0 <
b0 ;
b0 :
b1111 9
b100 8
b0 7
b0 6
b0 5
b0 4
b0 3
b0 2
b0 1
b0 0
b1 /
bx .
bx -
b110000 ,
b110000 +
bx *
b1010 )
b1010 (
bx '
b110000 &
b11 %
1$
z#
z"
0!
$end
#1
0G
#5
b101000 D
b101000 k
b101000 p
b110000 -
b110000 Y
b110000 7"
b110000 .
b110000 V
b110000 o
b110000 t
b110000 6"
b101000 +
b101000 T
b101000 n
b101000 4"
b100000 &
b100000 w
b100000 ,
b100000 U
b100000 `
b1000 J
b1000 S
b1000 X
b110000 I
b110000 R
b110000 [
b1 H
b1 Q
b1 ^
1A
b10011 C
b10011 j
b10011 u
b10000000000000000000000000000000000000000000000000000000000000 i
b0 8
b0 h
b0 +"
b10 9
b10 g
b10 *"
b1000 %
b1000 v
b1000 F
b1000 P
b1000 W
b1000 Z
b1000 ]
b1000 e
b1000 m
b1000 q
b1000 r
b1000 ~
b1000 ""
b1000 8"
b10000000001000000000000000000000000000000000000000000000000000000000000000110000 b
b10011 (
b10011 y
b10011 )
b10011 s
b10011 !"
b1010 M
b1010 c
b1010 |
b1010 }
b110000 0
b110000 3"
1!
#10
0!
#15
b101000 I
b101000 R
b101000 [
b101000 D
b101000 k
b101000 p
b101000 -
b101000 Y
b101000 7"
b101000 .
b101000 V
b101000 o
b101000 t
b101000 6"
b110000 +
b110000 T
b110000 n
b110000 4"
b0 &
b0 w
b0 ,
b0 U
b0 `
b0 H
b0 Q
b0 ^
1B
0A
b0 i
b1001 %
b1001 v
b1001 F
b1001 P
b1001 W
b1001 Z
b1001 ]
b1001 e
b1001 m
b1001 q
b1001 r
b1001 ~
b1001 ""
b1001 8"
b101001 C
b101001 j
b101001 u
b10010000001000000010001100000000000000000000000000000000000000000000000000000000 b
b100001 (
b100001 y
b100001 )
b100001 s
b100001 !"
b101000 0
b101000 3"
b100000 M
b100000 c
b100000 |
b100000 }
1!
#16
b10011 '
b10011 x
b10011 *
b10011 l
b10011 5"
#20
0!
#25
bx D
bx k
bx p
b101000 -
b101000 Y
b101000 7"
b101000 .
b101000 V
b101000 o
b101000 t
b101000 6"
b1010 +
b1010 T
b1010 n
b1010 4"
b1010 &
b1010 w
b1010 ,
b1010 U
b1010 `
b1010 J
b1010 S
b1010 X
b0 I
b0 R
b0 [
0B
b101000000000000000000000000000000000000000000000000000000000 i
b10 8
b10 h
b10 +"
b1111 9
b1111 g
b1111 *"
b11 %
b11 v
b11 F
b11 P
b11 W
b11 Z
b11 ]
b11 e
b11 m
b11 q
b11 r
b11 ~
b11 ""
b11 8"
b110000111100100000101000000000000000000000000000000000000000000000000000000000 b
b11101 (
b11101 y
b11101 )
b11101 s
b11101 !"
b10011 M
b10011 c
b10011 |
b10011 }
b110000 0
b110000 3"
1!
#30
0!
#35
b0 &
b0 w
b0 ,
b0 U
b0 `
b0 i
b0 8
b0 h
b0 +"
b0 9
b0 g
b0 *"
b0 %
b0 v
b0 F
b0 P
b0 W
b0 Z
b0 ]
b0 e
b0 m
b0 q
b0 r
b0 ~
b0 ""
b0 8"
b10010000001000000010001100000000000000000000000000000000 b
b11101 (
b11101 y
b11101 )
b11101 s
b11101 !"
b1010 2
b1010 1"
b11101 M
b11101 c
b11101 |
b11101 }
1!
#36
0$
0O
bx 8
bx h
bx +"
bx 9
bx g
bx *"
bx E
bx \
bx _
bx f
bx %
bx v
bx F
bx P
bx W
bx Z
bx ]
bx e
bx m
bx q
bx r
bx ~
bx ""
bx 8"
bx b
1{
1d
b10 /
b10 a
b10 z
b10 9"
