Y86-64-Single-Cycle/bin/wave.vcd
$date
	Wed Dec  6 11:52:10 2023
$end
$version
	Icarus Verilog
$end
$timescale
	1s
$end
$scope module arch_tb $end
$var reg 1 ! clk $end
$scope module arch_inst $end
$var wire 1 ! clk $end
$var wire 1 " dmem_error $end
$var wire 1 # imem_error $end
$var wire 1 $ instr_valid $end
$var wire 1 % pCnd $end
$var wire 4 & pIcode [3:0] $end
$var wire 64 ' pValC [63:0] $end
$var wire 64 ( pValM [63:0] $end
$var wire 64 ) pValP [63:0] $end
$var wire 64 * valP [63:0] $end
$var wire 64 + valM [63:0] $end
$var wire 64 , valE [63:0] $end
$var wire 64 - valC [63:0] $end
$var wire 64 . valB [63:0] $end
$var wire 64 / valA [63:0] $end
$var wire 2 0 stat [1:0] $end
$var wire 64 1 rsp [63:0] $end
$var wire 64 2 rsi [63:0] $end
$var wire 64 3 rdx [63:0] $end
$var wire 64 4 rdi [63:0] $end
$var wire 64 5 rcx [63:0] $end
$var wire 64 6 rbx [63:0] $end
$var wire 64 7 rbp [63:0] $end
$var wire 64 8 rax [63:0] $end
$var wire 4 9 rB [3:0] $end
$var wire 4 : rA [3:0] $end
$var wire 64 ; r9 [63:0] $end
$var wire 64 < r8 [63:0] $end
$var wire 64 = r14 [63:0] $end
$var wire 64 > r13 [63:0] $end
$var wire 64 ? r12 [63:0] $end
$var wire 64 @ r11 [63:0] $end
$var wire 64 A r10 [63:0] $end
$var wire 1 B memWrite $end
$var wire 1 C memRead $end
$var wire 64 D memData [63:0] $end
$var wire 64 E memAddr [63:0] $end
$var wire 4 F ifun [3:0] $end
$var wire 4 G icode [3:0] $end
$var wire 2 H aluFun [1:0] $end
$var wire 64 I aluB [63:0] $end
$var wire 64 J aluA [63:0] $end
$var wire 1 K ZF $end
$var wire 1 L SF $end
$var wire 64 M PCaddress [63:0] $end
$var wire 1 N OF $end
$var wire 1 O Cnd $end
$scope module u_ALU $end
$var wire 2 P aluFun [1:0] $end
$var wire 64 Q aluB [63:0] $end
$var wire 64 R aluA [63:0] $end
$var wire 1 K ZF $end
$var wire 1 L SF $end
$var wire 1 N OF $end
$var reg 64 S valE [63:0] $end
$upscope $end
$scope module u_ALU_A $end
$var wire 64 T valC [63:0] $end
$var wire 64 U valA [63:0] $end
$var wire 4 V icode [3:0] $end
$var reg 64 W aluA [63:0] $end
$upscope $end
$scope module u_ALU_B $end
$var wire 64 X valB [63:0] $end
$var wire 4 Y icode [3:0] $end
$var reg 64 Z aluB [63:0] $end
$upscope $end
$scope module u_ALU_fun $end
$var wire 4 [ ifun [3:0] $end
$var wire 4 \ icode [3:0] $end
$var reg 2 ] aluFun [1:0] $end
$upscope $end
$scope module u_CC $end
$var wire 1 N OF $end
$var wire 1 L SF $end
$var wire 1 K ZF $end
$var wire 4 ^ ifun [3:0] $end
$var reg 1 O Cnd $end
$upscope $end
$scope module u_InstMemory $end
$var wire 64 _ valC [63:0] $end
$var wire 80 ` instruction [79:0] $end
$var wire 64 a PCaddress [63:0] $end
$var reg 4 b icode [3:0] $end
$var reg 4 c ifun [3:0] $end
$var reg 4 d rA [3:0] $end
$var reg 4 e rB [3:0] $end
$var reg 64 f valC_litend [63:0] $end
$upscope $end
$scope module u_Mem $end
$var wire 1 B memWrite $end
$var wire 1 C memRead $end
$var wire 64 g memData [63:0] $end
$var wire 64 h memAddr [63:0] $end
$var reg 64 i valM [63:0] $end
$upscope $end
$scope module u_MemAddr $end
$var wire 4 j icode [3:0] $end
$var wire 64 k valE [63:0] $end
$var wire 64 l valA [63:0] $end
$var reg 64 m memAddr [63:0] $end
$upscope $end
$scope module u_MemControl $end
$var wire 4 n icode [3:0] $end
$var reg 1 C memRead $end
$var reg 1 B memWrite $end
$upscope $end
$scope module u_MemData $end
$var wire 4 o icode [3:0] $end
$var wire 64 p valP [63:0] $end
$var wire 64 q valA [63:0] $end
$var reg 64 r memData [63:0] $end
$upscope $end
$scope module u_PC $end
$var wire 1 ! clk $end
$var wire 1 % pCnd $end
$var wire 4 s pIcode [3:0] $end
$var wire 64 t pValC [63:0] $end
$var wire 64 u pValM [63:0] $end
$var wire 64 v pValP [63:0] $end
$var reg 64 w PCaddress [63:0] $end
$upscope $end
$scope module u_PCIncre $end
$var wire 64 x PCaddress [63:0] $end
$var wire 4 y icode [3:0] $end
$var reg 64 z valP [63:0] $end
$upscope $end
$scope module u_Regs $end
$var wire 1 O Cnd $end
$var wire 1 ! clk $end
$var wire 4 { icode [3:0] $end
$var wire 64 | r10 [63:0] $end
$var wire 64 } r11 [63:0] $end
$var wire 64 ~ r12 [63:0] $end
$var wire 64 !" r13 [63:0] $end
$var wire 64 "" r14 [63:0] $end
$var wire 64 #" r8 [63:0] $end
$var wire 64 $" r9 [63:0] $end
$var wire 4 %" rA [3:0] $end
$var wire 4 &" rB [3:0] $end
$var wire 64 '" rax [63:0] $end
$var wire 64 (" rbp [63:0] $end
$var wire 64 )" rbx [63:0] $end
$var wire 64 *" rcx [63:0] $end
$var wire 64 +" rdi [63:0] $end
$var wire 64 ," rdx [63:0] $end
$var wire 64 -" rsi [63:0] $end
$var wire 64 ." rsp [63:0] $end
$var wire 64 /" valE [63:0] $end
$var wire 64 0" valM [63:0] $end
$var reg 64 1" valA [63:0] $end
$var reg 64 2" valB [63:0] $end
$upscope $end
$scope module u_Stat $end
$var wire 1 " dmem_error $end
$var wire 4 3" icode [3:0] $end
$var wire 1 # imem_error $end
$var wire 1 $ instr_valid $end
$var wire 2 4" stat [1:0] $end
$upscope $end
$upscope $end
$upscope $end
$enddefinitions $end
#0
$dumpvars
b1 4"
b11 3"
bx 2"
bx 1"
bx 0"
b1000000000 /"
b0 ."
b0 -"
b0 ,"
b0 +"
b0 *"
b0 )"
b0 ("
b0 '"
b100 &"
b1111 %"
b0 $"
b0 #"
b0 ""
b0 !"
b0 ~
b0 }
b0 |
b11 {
b1010 z
b11 y
b0 x
b0 w
b1010 v
bx u
b1000000000 t
b11 s
bx r
bx q
b1010 p
b11 o
b11 n
bx m
bx l
b1000000000 k
b11 j
bx i
bx h
bx g
b10000000000000000000000000000000000000000000000000 f
b100 e
b1111 d
b0 c
b11 b
b0 a
b110000111101000000000000000010000000000000000000000000000000000000000000000000 `
b1000000000 _
b0 ^
b0 ]
b11 \
b0 [
b0 Z
b11 Y
bx X
b1000000000 W
b11 V
bx U
b1000000000 T
b1000000000 S
b1000000000 R
b0 Q
b0 P
1O
0N
b0 M
0L
0K
b1000000000 J
b0 I
b0 H
b11 G
b0 F
bx E
bx D
0C
0B
b0 A
b0 @
b0 ?
b0 >
b0 =
b0 <
b0 ;
b1111 :
b100 9
b0 8
b0 7
b0 6
b0 5
b0 4
b0 3
b0 2
b0 1
b1 0
bx /
bx .
b1000000000 -
b1000000000 ,
bx +
b1010 *
b1010 )
bx (
b1000000000 '
b11 &
1%
z$
z#
z"
0!
$end
#5
b1000000000 .
b1000000000 X
b1000000000 2"
b1000000000 /
b1000000000 U
b1000000000 l
b1000000000 q
b1000000000 1"
b1000000000 1
b1000000000 ."
0N
0L
0K
b111111000 ,
b111111000 S
b111111000 k
b111111000 /"
b111000 '
b111000 t
b111000 -
b111000 T
b111000 _
b1000 J
b1000 R
b1000 W
b1000000000 I
b1000000000 Q
b1000000000 Z
b1 H
b1 P
b1 ]
b111111000 E
b111111000 h
b111111000 m
1B
b10011 D
b10011 g
b10011 r
b11100000000000000000000000000000000000000000000000000000000000 f
b1000 9
b1000 e
b1000 &"
b11 :
b11 d
b11 %"
b1000 &
b1000 s
b1000 G
b1000 V
b1000 Y
b1000 \
b1000 b
b1000 j
b1000 n
b1000 o
b1000 y
b1000 {
b1000 3"
b10011 )
b10011 v
b10011 *
b10011 p
b10011 z
b10000000001110000000000000000000000000000000000000000000000000000000000000000000 `
b1010 M
b1010 a
b1010 w
b1010 x
1!
#10
0!
#15
b111111000 1
b111111000 ."
b11000 ,
b11000 S
b11000 k
b11000 /"
b11000 '
b11000 t
b11000 -
b11000 T
b11000 _
b11000 J
b11000 R
b11000 W
b0 I
b0 Q
b0 Z
b0 H
b0 P
b0 ]
bx E
bx h
bx m
0B
b1100000000000000000000000000000000000000000000000000000000000 f
b111 9
b111 e
b111 &"
b1111 :
b1111 d
b1111 %"
b11 &
b11 s
b11 G
b11 V
b11 Y
b11 \
b11 b
b11 j
b11 n
b11 o
b11 y
b11 {
b11 3"
b1000010 )
b1000010 v
b1000010 *
b1000010 p
b1000010 z
b110000111101110001100000000000000000000000000000000000000000000000000000000000 `
b111000 M
b111000 a
b111000 w
b111000 x
1!
#20
0!
#25
b11000 4
b11000 +"
b100 ,
b100 S
b100 k
b100 /"
b100 J
b100 R
b100 W
b100 '
b100 t
b100 -
b100 T
b100 _
b10000000000000000000000000000000000000000000000000000000000 f
b110 9
b110 e
b110 &"
b1001100 )
b1001100 v
b1001100 *
b1001100 p
b1001100 z
b110000111101100000010000000000000000000000000000000000000000000000000000000000 `
b1000010 M
b1000010 a
b1000010 w
b1000010 x
1!
#30
0!
#35
b111111000 .
b111111000 X
b111111000 2"
b111111000 /
b111111000 U
b111111000 l
b111111000 q
b111111000 1"
b100 2
b100 -"
b111110000 ,
b111110000 S
b111110000 k
b111110000 /"
b1010110 '
b1010110 t
b1010110 -
b1010110 T
b1010110 _
b1000 J
b1000 R
b1000 W
b111111000 I
b111111000 Q
b111111000 Z
b1 H
b1 P
b1 ]
b111110000 E
b111110000 h
b111110000 m
1B
b1010101 D
b1010101 g
b1010101 r
b101011000000000000000000000000000000000000000000000000000000000 f
b101 :
b101 d
b101 %"
b1000 &
b1000 s
b1000 G
b1000 V
b1000 Y
b1000 \
b1000 b
b1000 j
b1000 n
b1000 o
b1000 y
b1000 {
b1000 3"
b1010101 )
b1010101 v
b1010101 *
b1010101 p
b1010101 z
b10000000010101100000000000000000000000000000000000000000000000000000000010010000 `
b1001100 M
b1001100 a
b1001100 w
b1001100 x
1!
#40
0!
#45
b111110000 1
b111110000 ."
b1000 ,
b1000 S
b1000 k
b1000 /"
b1000 '
b1000 t
b1000 -
b1000 T
b1000 _
b1000 J
b1000 R
b1000 W
b0 I
b0 Q
b0 Z
b0 H
b0 P
b0 ]
bx E
bx h
bx m
0B
b100000000000000000000000000000000000000000000000000000000000 f
b1000 9
b1000 e
b1000 &"
b1111 :
b1111 d
b1111 %"
b11 &
b11 s
b11 G
b11 V
b11 Y
b11 \
b11 b
b11 j
b11 n
b11 o
b11 y
b11 {
b11 3"
b1100000 )
b1100000 v
b1100000 *
b1100000 p
b1100000 z
b110000111110000000100000000000000000000000000000000000000000000000000000000000 `
b1010110 M
b1010110 a
b1010110 w
b1010110 x
1!
#50
0!
#55
b1000 <
b1000 #"
b1 ,
b1 S
b1 k
b1 /"
b1 J
b1 R
b1 W
b1 '
b1 t
b1 -
b1 T
b1 _
b100000000000000000000000000000000000000000000000000000000 f
b1001 9
b1001 e
b1001 &"
b1101010 )
b1101010 v
b1101010 *
b1101010 p
b1101010 z
b110000111110010000000100000000000000000000000000000000000000000000000000000000 `
b1100000 M
b1100000 a
b1100000 w
b1100000 x
1!
#60
0!
#65
b0 .
b0 X
b0 2"
b0 /
b0 U
b0 l
b0 q
b0 1"
b1 ;
b1 $"
1K
b0 ,
b0 S
b0 k
b0 /"
b0 '
b0 t
b0 -
b0 T
b0 _
1%
1O
b0 J
b0 R
b0 W
b0 I
b0 Q
b0 Z
b11 H
b11 P
b11 ]
b0 f
b0 9
b0 e
b0 &"
b0 :
b0 d
b0 %"
b11 F
b11 [
b11 ^
b11 c
b110 &
b110 s
b110 G
b110 V
b110 Y
b110 \
b110 b
b110 j
b110 n
b110 o
b110 y
b110 {
b110 3"
b1101100 )
b1101100 v
b1101100 *
b1101100 p
b1101100 z
b1100011000000000110001001100110011100001000110100000000000000000000000000000000 `
b1101010 M
b1101010 a
b1101010 w
b1101010 x
1!
#70
0!
#75
0K
b100 ,
b100 S
b100 k
b100 /"
b100 I
b100 Q
b100 Z
b100 J
b100 R
b100 W
b100 .
b100 X
b100 2"
b100 /
b100 U
b100 l
b100 q
b100 1"
b10 H
b10 P
b10 ]
0%
0O
b110 9
b110 e
b110 &"
b110 :
b110 d
b110 %"
b10 F
b10 [
b10 ^
b10 c
b1101110 )
b1101110 v
b1101110 *
b1101110 p
b1101110 z
b1100010011001100111000010001101000000000000000000000000000000000000000000000000 `
b1101100 M
b1101100 a
b1101100 w
b1101100 x
1!
#80
0!
#85
b10001101 '
b10001101 t
b10001101 -
b10001101 T
b10001101 _
1%
1O
b1000110100000000000000000000000000000000000000000000000000000000 f
b1101 9
b1101 e
b1101 &"
b1000 :
b1000 d
b1000 %"
b0 F
b0 [
b0 ^
b0 c
b111 &
b111 s
b111 G
b111 V
b111 Y
b111 \
b111 b
b111 j
b111 n
b111 o
b111 y
b111 {
b111 3"
b1110111 )
b1110111 v
b1110111 *
b1110111 p
b1110111 z
b1110000100011010000000000000000000000000000000000000000000000000000000001010000 `
b1101110 M
b1101110 a
b1101110 w
b1101110 x
1!
#90
0!
#95
b1110111 '
b1110111 t
b1110111 -
b1110111 T
b1110111 _
b111011100000000000000000000000000000000000000000000000000000000 f
b111 9
b111 e
b111 &"
b111 :
b111 d
b111 %"
b100 F
b100 [
b100 ^
b100 c
b10010110 )
b10010110 v
b10010110 *
b10010110 p
b10010110 z
b1110100011101110000000000000000000000000000000000000000000000000000000010010000 `
b10001101 M
b10001101 a
b10001101 w
b10001101 x
1!
#100
0!
#105
b11000 I
b11000 Q
b11000 Z
b110100000000000011010000000000001101 (
b110100000000000011010000000000001101 u
b110100000000000011010000000000001101 +
b110100000000000011010000000000001101 i
b110100000000000011010000000000001101 0"
b11000 .
b11000 X
b11000 2"
b0 /
b0 U
b0 l
b0 q
b0 1"
b11000 ,
b11000 S
b11000 k
b11000 /"
b0 '
b0 t
b0 -
b0 T
b0 _
b0 J
b0 R
b0 W
b0 H
b0 P
b0 ]
b11000 E
b11000 h
b11000 m
1C
b0 f
b1010 :
b1010 d
b1010 %"
b0 F
b0 [
b0 ^
b0 c
b101 &
b101 s
b101 G
b101 V
b101 Y
b101 \
b101 b
b101 j
b101 n
b101 o
b101 y
b101 {
b101 3"
b10000001 )
b10000001 v
b10000001 *
b10000001 p
b10000001 z
b1010000101001110000000000000000000000000000000000000000000000000000000000000000 `
b1110111 M
b1110111 a
b1110111 w
b1110111 x
1!
#110
0!
#115
1K
b0 ,
b0 S
b0 k
b0 /"
b0 I
b0 Q
b0 Z
b0 .
b0 X
b0 2"
b110100000000000011010000000000001101 A
b110100000000000011010000000000001101 |
1%
1O
b11 H
b11 P
b11 ]
bx E
bx h
bx m
0C
b1011 9
b1011 e
b1011 &"
b1011 :
b1011 d
b1011 %"
b11 F
b11 [
b11 ^
b11 c
b110 &
b110 s
b110 G
b110 V
b110 Y
b110 \
b110 b
b110 j
b110 n
b110 o
b110 y
b110 {
b110 3"
b10000011 )
b10000011 v
b10000011 *
b10000011 p
b10000011 z
b1100011101110110110000110101011001001101011101001100000101000000110000010000111 `
b10000001 M
b10000001 a
b10000001 w
b10000001 x
1!
#120
0!
#125
0%
0O
1N
1L
0K
b1111111111111111111111111111001011111111111100101111111111110011 ,
b1111111111111111111111111111001011111111111100101111111111110011 S
b1111111111111111111111111111001011111111111100101111111111110011 k
b1111111111111111111111111111001011111111111100101111111111110011 /"
b110100000000000011010000000000001101 J
b110100000000000011010000000000001101 R
b110100000000000011010000000000001101 W
b110100000000000011010000000000001101 /
b110100000000000011010000000000001101 U
b110100000000000011010000000000001101 l
b110100000000000011010000000000001101 q
b110100000000000011010000000000001101 1"
b1 H
b1 P
b1 ]
b1010 :
b1010 d
b1010 %"
b1 F
b1 [
b1 ^
b1 c
b10000101 )
b10000101 v
b10000101 *
b10000101 p
b10000101 z
b1100001101010110010011010111010011000001010000001100000100001110110000110010110 `
b10000011 M
b10000011 a
b10000011 w
b10000011 x
1!
#130
0!
#135
0K
b1111111111111111111111111111001011111111111100101111111111110011 J
b1111111111111111111111111111001011111111111100101111111111110011 R
b1111111111111111111111111111001011111111111100101111111111110011 W
b110100000000000011010000000000001101 .
b110100000000000011010000000000001101 X
b110100000000000011010000000000001101 2"
b1111111111111111111111111111001011111111111100101111111111110011 /
b1111111111111111111111111111001011111111111100101111111111110011 U
b1111111111111111111111111111001011111111111100101111111111110011 l
b1111111111111111111111111111001011111111111100101111111111110011 q
b1111111111111111111111111111001011111111111100101111111111110011 1"
b1111111111111111111111111111001011111111111100101111111111110011 @
b1111111111111111111111111111001011111111111100101111111111110011 }
0N
1L
b1111111111111111111111111111001011111111111100101111111111110011 ,
b1111111111111111111111111111001011111111111100101111111111110011 S
b1111111111111111111111111111001011111111111100101111111111110011 k
b1111111111111111111111111111001011111111111100101111111111110011 /"
0%
0O
b0 H
b0 P
b0 ]
b1010 9
b1010 e
b1010 &"
b1011 :
b1011 d
b1011 %"
b110 F
b110 [
b110 ^
b110 c
b10 &
b10 s
b10 G
b10 V
b10 Y
b10 \
b10 b
b10 j
b10 n
b10 o
b10 y
b10 {
b10 3"
b10000111 )
b10000111 v
b10000111 *
b10000111 p
b10000111 z
b100110101110100110000010100000011000001000011101100001100101100111010001110111 `
b10000101 M
b10000101 a
b10000101 w
b10000101 x
1!
#140
0!
#145
b110100000000000011010000000000001101 J
b110100000000000011010000000000001101 R
b110100000000000011010000000000001101 W
b0 .
b0 X
b0 2"
b110100000000000011010000000000001101 /
b110100000000000011010000000000001101 U
b110100000000000011010000000000001101 l
b110100000000000011010000000000001101 q
b110100000000000011010000000000001101 1"
0L
0K
b110100000000000011010000000000001101 ,
b110100000000000011010000000000001101 S
b110100000000000011010000000000001101 k
b110100000000000011010000000000001101 /"
1%
1O
b0 I
b0 Q
b0 Z
b0 9
b0 e
b0 &"
b1010 :
b1010 d
b1010 %"
b0 F
b0 [
b0 ^
b0 c
b110 &
b110 s
b110 G
b110 V
b110 Y
b110 \
b110 b
b110 j
b110 n
b110 o
b110 y
b110 {
b110 3"
b10001001 )
b10001001 v
b10001001 *
b10001001 p
b10001001 z
b1100000101000000110000010000111011000011001011001110100011101110000000000000000 `
b10000111 M
b10000111 a
b10000111 w
b10000111 x
1!
#150
0!
#155
b100000 ,
b100000 S
b100000 k
b100000 /"
b11000 I
b11000 Q
b11000 Z
b1000 J
b1000 R
b1000 W
b11000 .
b11000 X
b11000 2"
b1000 /
b1000 U
b1000 l
b1000 q
b1000 1"
b110100000000000011010000000000001101 8
b110100000000000011010000000000001101 '"
b111 9
b111 e
b111 &"
b1000 :
b1000 d
b1000 %"
b10001011 )
b10001011 v
b10001011 *
b10001011 p
b10001011 z
b1100000100001110110000110010110011101000111011100000000000000000000000000000000 `
b10001001 M
b10001001 a
b10001001 w
b10001001 x
1!
#160
0!
#165
b100 I
b100 Q
b100 Z
b1 J
b1 R
b1 W
b100 .
b100 X
b100 2"
b1 /
b1 U
b1 l
b1 q
b1 1"
b100000 4
b100000 +"
b11 ,
b11 S
b11 k
b11 /"
b1 H
b1 P
b1 ]
0%
0O
b110 9
b110 e
b110 &"
b1001 :
b1001 d
b1001 %"
b1 F
b1 [
b1 ^
b1 c
b10001101 )
b10001101 v
b10001101 *
b10001101 p
b10001101 z
b1100001100101100111010001110111000000000000000000000000000000000000000000000000 `
b10001011 M
b10001011 a
b10001011 w
b10001011 x
1!
#170
0!
#175
b11 2
b11 -"
b1110111 '
b1110111 t
b1110111 -
b1110111 T
b1110111 _
1%
1O
b111011100000000000000000000000000000000000000000000000000000000 f
b111 9
b111 e
b111 &"
b111 :
b111 d
b111 %"
b100 F
b100 [
b100 ^
b100 c
b111 &
b111 s
b111 G
b111 V
b111 Y
b111 \
b111 b
b111 j
b111 n
b111 o
b111 y
b111 {
b111 3"
b10010110 )
b10010110 v
b10010110 *
b10010110 p
b10010110 z
b1110100011101110000000000000000000000000000000000000000000000000000000010010000 `
b10001101 M
b10001101 a
b10001101 w
b10001101 x
1!
#180
0!
#185
b100000 I
b100000 Q
b100000 Z
b1111111111111111111111110011111111111111001111111111111101000000 (
b1111111111111111111111110011111111111111001111111111111101000000 u
b1111111111111111111111110011111111111111001111111111111101000000 +
b1111111111111111111111110011111111111111001111111111111101000000 i
b1111111111111111111111110011111111111111001111111111111101000000 0"
b100000 .
b100000 X
b100000 2"
b110100000000000011010000000000001101 /
b110100000000000011010000000000001101 U
b110100000000000011010000000000001101 l
b110100000000000011010000000000001101 q
b110100000000000011010000000000001101 1"
b100000 ,
b100000 S
b100000 k
b100000 /"
b0 '
b0 t
b0 -
b0 T
b0 _
b0 J
b0 R
b0 W
b0 H
b0 P
b0 ]
b100000 E
b100000 h
b100000 m
1C
b0 f
b1010 :
b1010 d
b1010 %"
b0 F
b0 [
b0 ^
b0 c
b101 &
b101 s
b101 G
b101 V
b101 Y
b101 \
b101 b
b101 j
b101 n
b101 o
b101 y
b101 {
b101 3"
b10000001 )
b10000001 v
b10000001 *
b10000001 p
b10000001 z
b1010000101001110000000000000000000000000000000000000000000000000000000000000000 `
b1110111 M
b1110111 a
b1110111 w
b1110111 x
1!
#190
0!
#195
1N
1K
b1111111111111111111111111111001011111111111100101111111111110011 I
b1111111111111111111111111111001011111111111100101111111111110011 Q
b1111111111111111111111111111001011111111111100101111111111110011 Z
b1111111111111111111111111111001011111111111100101111111111110011 .
b1111111111111111111111111111001011111111111100101111111111110011 X
b1111111111111111111111111111001011111111111100101111111111110011 2"
b1111111111111111111111111111001011111111111100101111111111110011 /
b1111111111111111111111111111001011111111111100101111111111110011 U
b1111111111111111111111111111001011111111111100101111111111110011 l
b1111111111111111111111111111001011111111111100101111111111110011 q
b1111111111111111111111111111001011111111111100101111111111110011 1"
b1111111111111111111111110011111111111111001111111111111101000000 A
b1111111111111111111111110011111111111111001111111111111101000000 |
b0 ,
b0 S
b0 k
b0 /"
1%
1O
b1111111111111111111111111111001011111111111100101111111111110011 J
b1111111111111111111111111111001011111111111100101111111111110011 R
b1111111111111111111111111111001011111111111100101111111111110011 W
b11 H
b11 P
b11 ]
bx E
bx h
bx m
0C
b1011 9
b1011 e
b1011 &"
b1011 :
b1011 d
b1011 %"
b11 F
b11 [
b11 ^
b11 c
b110 &
b110 s
b110 G
b110 V
b110 Y
b110 \
b110 b
b110 j
b110 n
b110 o
b110 y
b110 {
b110 3"
b10000011 )
b10000011 v
b10000011 *
b10000011 p
b10000011 z
b1100011101110110110000110101011001001101011101001100000101000000110000010000111 `
b10000001 M
b10000001 a
b10000001 w
b10000001 x
1!
#200
0!
#205
0%
0O
0N
b0 I
b0 Q
b0 Z
b0 .
b0 X
b0 2"
0K
b1100000000000000110000000000000011000000 ,
b1100000000000000110000000000000011000000 S
b1100000000000000110000000000000011000000 k
b1100000000000000110000000000000011000000 /"
b1111111111111111111111110011111111111111001111111111111101000000 J
b1111111111111111111111110011111111111111001111111111111101000000 R
b1111111111111111111111110011111111111111001111111111111101000000 W
b1111111111111111111111110011111111111111001111111111111101000000 /
b1111111111111111111111110011111111111111001111111111111101000000 U
b1111111111111111111111110011111111111111001111111111111101000000 l
b1111111111111111111111110011111111111111001111111111111101000000 q
b1111111111111111111111110011111111111111001111111111111101000000 1"
b0 @
b0 }
b1 H
b1 P
b1 ]
b1010 :
b1010 d
b1010 %"
b1 F
b1 [
b1 ^
b1 c
b10000101 )
b10000101 v
b10000101 *
b10000101 p
b10000101 z
b1100001101010110010011010111010011000001010000001100000100001110110000110010110 `
b10000011 M
b10000011 a
b10000011 w
b10000011 x
1!
#210
0!
#215
0K
b1100000000000000110000000000000011000000 J
b1100000000000000110000000000000011000000 R
b1100000000000000110000000000000011000000 W
b1111111111111111111111110011111111111111001111111111111101000000 .
b1111111111111111111111110011111111111111001111111111111101000000 X
b1111111111111111111111110011111111111111001111111111111101000000 2"
b1100000000000000110000000000000011000000 /
b1100000000000000110000000000000011000000 U
b1100000000000000110000000000000011000000 l
b1100000000000000110000000000000011000000 q
b1100000000000000110000000000000011000000 1"
b1100000000000000110000000000000011000000 @
b1100000000000000110000000000000011000000 }
0L
b1100000000000000110000000000000011000000 ,
b1100000000000000110000000000000011000000 S
b1100000000000000110000000000000011000000 k
b1100000000000000110000000000000011000000 /"
1%
1O
b0 H
b0 P
b0 ]
b1010 9
b1010 e
b1010 &"
b1011 :
b1011 d
b1011 %"
b110 F
b110 [
b110 ^
b110 c
b10 &
b10 s
b10 G
b10 V
b10 Y
b10 \
b10 b
b10 j
b10 n
b10 o
b10 y
b10 {
b10 3"
b10000111 )
b10000111 v
b10000111 *
b10000111 p
b10000111 z
b100110101110100110000010100000011000001000011101100001100101100111010001110111 `
b10000101 M
b10000101 a
b10000101 w
b10000101 x
1!
#220
0!
#225
0L
b1100000000000000110000000000000011000000 J
b1100000000000000110000000000000011000000 R
b1100000000000000110000000000000011000000 W
b110100000000000011010000000000001101 .
b110100000000000011010000000000001101 X
b110100000000000011010000000000001101 2"
b1100000000000000110000000000000011000000 /
b1100000000000000110000000000000011000000 U
b1100000000000000110000000000000011000000 l
b1100000000000000110000000000000011000000 q
b1100000000000000110000000000000011000000 1"
b1100000000000000110000000000000011000000 A
b1100000000000000110000000000000011000000 |
0K
b1100110100000000110011010000000011001101 ,
b1100110100000000110011010000000011001101 S
b1100110100000000110011010000000011001101 k
b1100110100000000110011010000000011001101 /"
b110100000000000011010000000000001101 I
b110100000000000011010000000000001101 Q
b110100000000000011010000000000001101 Z
b0 9
b0 e
b0 &"
b1010 :
b1010 d
b1010 %"
b0 F
b0 [
b0 ^
b0 c
b110 &
b110 s
b110 G
b110 V
b110 Y
b110 \
b110 b
b110 j
b110 n
b110 o
b110 y
b110 {
b110 3"
b10001001 )
b10001001 v
b10001001 *
b10001001 p
b10001001 z
b1100000101000000110000010000111011000011001011001110100011101110000000000000000 `
b10000111 M
b10000111 a
b10000111 w
b10000111 x
1!
#230
0!
#235
b101000 ,
b101000 S
b101000 k
b101000 /"
b100000 I
b100000 Q
b100000 Z
b1000 J
b1000 R
b1000 W
b100000 .
b100000 X
b100000 2"
b1000 /
b1000 U
b1000 l
b1000 q
b1000 1"
b1100110100000000110011010000000011001101 8
b1100110100000000110011010000000011001101 '"
b111 9
b111 e
b111 &"
b1000 :
b1000 d
b1000 %"
b10001011 )
b10001011 v
b10001011 *
b10001011 p
b10001011 z
b1100000100001110110000110010110011101000111011100000000000000000000000000000000 `
b10001001 M
b10001001 a
b10001001 w
b10001001 x
1!
#240
0!
#245
b11 I
b11 Q
b11 Z
b1 J
b1 R
b1 W
b11 .
b11 X
b11 2"
b1 /
b1 U
b1 l
b1 q
b1 1"
b101000 4
b101000 +"
b10 ,
b10 S
b10 k
b10 /"
b1 H
b1 P
b1 ]
0%
0O
b110 9
b110 e
b110 &"
b1001 :
b1001 d
b1001 %"
b1 F
b1 [
b1 ^
b1 c
b10001101 )
b10001101 v
b10001101 *
b10001101 p
b10001101 z
b1100001100101100111010001110111000000000000000000000000000000000000000000000000 `
b10001011 M
b10001011 a
b10001011 w
b10001011 x
1!
#250
0!
#255
b10 2
b10 -"
b1110111 '
b1110111 t
b1110111 -
b1110111 T
b1110111 _
1%
1O
b111011100000000000000000000000000000000000000000000000000000000 f
b111 9
b111 e
b111 &"
b111 :
b111 d
b111 %"
b100 F
b100 [
b100 ^
b100 c
b111 &
b111 s
b111 G
b111 V
b111 Y
b111 \
b111 b
b111 j
b111 n
b111 o
b111 y
b111 {
b111 3"
b10010110 )
b10010110 v
b10010110 *
b10010110 p
b10010110 z
b1110100011101110000000000000000000000000000000000000000000000000000000010010000 `
b10001101 M
b10001101 a
b10001101 w
b10001101 x
1!
#260
0!
#265
b101000 I
b101000 Q
b101000 Z
b10110000000000001011000000000000101100000000 (
b10110000000000001011000000000000101100000000 u
b10110000000000001011000000000000101100000000 +
b10110000000000001011000000000000101100000000 i
b10110000000000001011000000000000101100000000 0"
b101000 .
b101000 X
b101000 2"
b1100000000000000110000000000000011000000 /
b1100000000000000110000000000000011000000 U
b1100000000000000110000000000000011000000 l
b1100000000000000110000000000000011000000 q
b1100000000000000110000000000000011000000 1"
b101000 ,
b101000 S
b101000 k
b101000 /"
b0 '
b0 t
b0 -
b0 T
b0 _
b0 J
b0 R
b0 W
b0 H
b0 P
b0 ]
b101000 E
b101000 h
b101000 m
1C
b0 f
b1010 :
b1010 d
b1010 %"
b0 F
b0 [
b0 ^
b0 c
b101 &
b101 s
b101 G
b101 V
b101 Y
b101 \
b101 b
b101 j
b101 n
b101 o
b101 y
b101 {
b101 3"
b10000001 )
b10000001 v
b10000001 *
b10000001 p
b10000001 z
b1010000101001110000000000000000000000000000000000000000000000000000000000000000 `
b1110111 M
b1110111 a
b1110111 w
b1110111 x
1!
#270
0!
#275
1K
b1100000000000000110000000000000011000000 I
b1100000000000000110000000000000011000000 Q
b1100000000000000110000000000000011000000 Z
b1100000000000000110000000000000011000000 .
b1100000000000000110000000000000011000000 X
b1100000000000000110000000000000011000000 2"
b10110000000000001011000000000000101100000000 A
b10110000000000001011000000000000101100000000 |
b0 ,
b0 S
b0 k
b0 /"
1%
1O
b1100000000000000110000000000000011000000 J
b1100000000000000110000000000000011000000 R
b1100000000000000110000000000000011000000 W
b11 H
b11 P
b11 ]
bx E
bx h
bx m
0C
b1011 9
b1011 e
b1011 &"
b1011 :
b1011 d
b1011 %"
b11 F
b11 [
b11 ^
b11 c
b110 &
b110 s
b110 G
b110 V
b110 Y
b110 \
b110 b
b110 j
b110 n
b110 o
b110 y
b110 {
b110 3"
b10000011 )
b10000011 v
b10000011 *
b10000011 p
b10000011 z
b1100011101110110110000110101011001001101011101001100000101000000110000010000111 `
b10000001 M
b10000001 a
b10000001 w
b10000001 x
1!
#280
0!
