Y86-64-Single-Cycle/bin/wave.vcd
$date
	Wed Dec  6 11:09:33 2023
$end
$version
	Icarus Verilog
$end
$timescale
	1s
$end
$scope module arch_tb $end
$var reg 1 ! clk $end
$scope module arch_inst $end
$var wire 1 ! clk $end
$var wire 1 " pCnd $end
$var wire 4 # pIcode [3:0] $end
$var wire 64 $ pValC [63:0] $end
$var wire 64 % pValM [63:0] $end
$var wire 64 & pValP [63:0] $end
$var wire 64 ' valP [63:0] $end
$var wire 64 ( valM [63:0] $end
$var wire 64 ) valE [63:0] $end
$var wire 64 * valC [63:0] $end
$var wire 64 + valB [63:0] $end
$var wire 64 , valA [63:0] $end
$var wire 4 - rB [3:0] $end
$var wire 4 . rA [3:0] $end
$var wire 1 / memWrite $end
$var wire 1 0 memRead $end
$var wire 64 1 memData [63:0] $end
$var wire 64 2 memAddr [63:0] $end
$var wire 4 3 ifun [3:0] $end
$var wire 4 4 icode [3:0] $end
$var wire 2 5 aluFun [1:0] $end
$var wire 64 6 aluB [63:0] $end
$var wire 64 7 aluA [63:0] $end
$var wire 1 8 ZF $end
$var wire 1 9 SF $end
$var wire 64 : PCaddress [63:0] $end
$var wire 1 ; OF $end
$var wire 1 < Cnd $end
$scope module u_ALU $end
$var wire 2 = aluFun [1:0] $end
$var wire 64 > aluB [63:0] $end
$var wire 64 ? aluA [63:0] $end
$var wire 1 8 ZF $end
$var wire 1 9 SF $end
$var wire 1 ; OF $end
$var reg 64 @ valE [63:0] $end
$upscope $end
$scope module u_ALU_A $end
$var wire 64 A valC [63:0] $end
$var wire 64 B valA [63:0] $end
$var wire 4 C icode [3:0] $end
$var reg 64 D aluA [63:0] $end
$upscope $end
$scope module u_ALU_B $end
$var wire 64 E valB [63:0] $end
$var wire 4 F icode [3:0] $end
$var reg 64 G aluB [63:0] $end
$upscope $end
$scope module u_ALU_fun $end
$var wire 4 H ifun [3:0] $end
$var wire 4 I icode [3:0] $end
$var reg 2 J aluFun [1:0] $end
$upscope $end
$scope module u_CC $end
$var wire 1 ; OF $end
$var wire 1 9 SF $end
$var wire 1 8 ZF $end
$var wire 4 K ifun [3:0] $end
$var reg 1 < Cnd $end
$upscope $end
$scope module u_InstMemory $end
$var wire 64 L valC [63:0] $end
$var wire 80 M instruction [79:0] $end
$var wire 64 N PCaddress [63:0] $end
$var reg 4 O icode [3:0] $end
$var reg 4 P ifun [3:0] $end
$var reg 4 Q rA [3:0] $end
$var reg 4 R rB [3:0] $end
$var reg 64 S valC_litend [63:0] $end
$upscope $end
$scope module u_Mem $end
$var wire 1 / memWrite $end
$var wire 1 0 memRead $end
$var wire 64 T memData [63:0] $end
$var wire 64 U memAddr [63:0] $end
$var wire 64 V main_address [63:0] $end
$var wire 64 W absSum_address [63:0] $end
$var reg 64 X valM [63:0] $end
$upscope $end
$scope module u_MemAddr $end
$var wire 4 Y icode [3:0] $end
$var wire 64 Z valE [63:0] $end
$var wire 64 [ valA [63:0] $end
$var reg 64 \ memAddr [63:0] $end
$upscope $end
$scope module u_MemControl $end
$var wire 4 ] icode [3:0] $end
$var reg 1 0 memRead $end
$var reg 1 / memWrite $end
$upscope $end
$scope module u_MemData $end
$var wire 4 ^ icode [3:0] $end
$var wire 64 _ valP [63:0] $end
$var wire 64 ` valA [63:0] $end
$var reg 64 a memData [63:0] $end
$upscope $end
$scope module u_PC $end
$var wire 1 ! clk $end
$var wire 1 " pCnd $end
$var wire 4 b pIcode [3:0] $end
$var wire 64 c pValC [63:0] $end
$var wire 64 d pValM [63:0] $end
$var wire 64 e pValP [63:0] $end
$var reg 64 f PCaddress [63:0] $end
$upscope $end
$scope module u_PCIncre $end
$var wire 64 g PCaddress [63:0] $end
$var wire 4 h icode [3:0] $end
$var reg 64 i valP [63:0] $end
$upscope $end
$scope module u_Regs $end
$var wire 1 < Cnd $end
$var wire 1 ! clk $end
$var wire 4 j icode [3:0] $end
$var wire 64 k r10 [63:0] $end
$var wire 64 l r11 [63:0] $end
$var wire 64 m r12 [63:0] $end
$var wire 64 n r13 [63:0] $end
$var wire 64 o r14 [63:0] $end
$var wire 64 p r8 [63:0] $end
$var wire 64 q r9 [63:0] $end
$var wire 4 r rA [3:0] $end
$var wire 4 s rB [3:0] $end
$var wire 64 t rax [63:0] $end
$var wire 64 u rbp [63:0] $end
$var wire 64 v rbx [63:0] $end
$var wire 64 w rcx [63:0] $end
$var wire 64 x rdi [63:0] $end
$var wire 64 y rdx [63:0] $end
$var wire 64 z rsi [63:0] $end
$var wire 64 { rsp [63:0] $end
$var wire 64 | valE [63:0] $end
$var wire 64 } valM [63:0] $end
$var reg 64 ~ valA [63:0] $end
$var reg 64 !" valB [63:0] $end
$upscope $end
$upscope $end
$upscope $end
$enddefinitions $end
#0
$dumpvars
bx !"
bx ~
bx }
b1000000000 |
b0 {
b0 z
b0 y
b0 x
b0 w
b0 v
b0 u
b0 t
b100 s
b1111 r
b0 q
b0 p
b0 o
b0 n
b0 m
b0 l
b0 k
b11 j
b1010 i
b11 h
b0 g
b0 f
b1010 e
bx d
b1000000000 c
b11 b
bx a
bx `
b1010 _
b11 ^
b11 ]
bx \
bx [
b1000000000 Z
b11 Y
bx X
b0 W
b0 V
bx U
bx T
b10000000000000000000000000000000000000000000000000 S
b100 R
b1111 Q
b0 P
b11 O
b0 N
b110000111101000000000000000010000000000000000000000000000000000000000000000000 M
b1000000000 L
b0 K
b0 J
b11 I
b0 H
b0 G
b11 F
bx E
b1000000000 D
b11 C
bx B
b1000000000 A
b1000000000 @
b1000000000 ?
b0 >
b0 =
1<
0;
b0 :
09
08
b1000000000 7
b0 6
b0 5
b11 4
b0 3
bx 2
bx 1
00
0/
b1111 .
b100 -
bx ,
bx +
b1000000000 *
b1000000000 )
bx (
b1010 '
b1010 &
bx %
b1000000000 $
b11 #
1"
0!
$end
#5
b10011 V
b1000000000 +
b1000000000 E
b1000000000 !"
b1000000000 ,
b1000000000 B
b1000000000 [
b1000000000 `
b1000000000 ~
b1000000000 {
0;
09
08
b111111000 )
b111111000 @
b111111000 Z
b111111000 |
b111000 $
b111000 c
b111000 *
b111000 A
b111000 L
b1000 7
b1000 ?
b1000 D
b1000000000 6
b1000000000 >
b1000000000 G
b1 5
b1 =
b1 J
b111111000 2
b111111000 U
b111111000 \
1/
b10011 1
b10011 T
b10011 a
b11100000000000000000000000000000000000000000000000000000000000 S
b1000 -
b1000 R
b1000 s
b11 .
b11 Q
b11 r
b1000 #
b1000 b
b1000 4
b1000 C
b1000 F
b1000 I
b1000 O
b1000 Y
b1000 ]
b1000 ^
b1000 h
b1000 j
b10011 &
b10011 e
b10011 '
b10011 _
b10011 i
b10000000001110000000000000000000000000000000000000000000000000000000000000000000 M
b1010 :
b1010 N
b1010 f
b1010 g
1!
#10
0!
#15
b111111000 {
b11000 )
b11000 @
b11000 Z
b11000 |
b11000 $
b11000 c
b11000 *
b11000 A
b11000 L
b11000 7
b11000 ?
b11000 D
b0 6
b0 >
b0 G
b0 5
b0 =
b0 J
bx 2
bx U
bx \
0/
b1100000000000000000000000000000000000000000000000000000000000 S
b111 -
b111 R
b111 s
b1111 .
b1111 Q
b1111 r
b11 #
b11 b
b11 4
b11 C
b11 F
b11 I
b11 O
b11 Y
b11 ]
b11 ^
b11 h
b11 j
b1000010 &
b1000010 e
b1000010 '
b1000010 _
b1000010 i
b110000111101110001100000000000000000000000000000000000000000000000000000000000 M
b111000 :
b111000 N
b111000 f
b111000 g
1!
#20
0!
#25
b11000 x
b100 )
b100 @
b100 Z
b100 |
b100 7
b100 ?
b100 D
b100 $
b100 c
b100 *
b100 A
b100 L
b10000000000000000000000000000000000000000000000000000000000 S
b110 -
b110 R
b110 s
b1001100 &
b1001100 e
b1001100 '
b1001100 _
b1001100 i
b110000111101100000010000000000000000000000000000000000000000000000000000000000 M
b1000010 :
b1000010 N
b1000010 f
b1000010 g
1!
#30
0!
#35
b1010101 W
b1010101 V
b111111000 +
b111111000 E
b111111000 !"
b111111000 ,
b111111000 B
b111111000 [
b111111000 `
b111111000 ~
b100 z
b111110000 )
b111110000 @
b111110000 Z
b111110000 |
b1010110 $
b1010110 c
b1010110 *
b1010110 A
b1010110 L
b1000 7
b1000 ?
b1000 D
b111111000 6
b111111000 >
b111111000 G
b1 5
b1 =
b1 J
b111110000 2
b111110000 U
b111110000 \
1/
b1010101 1
b1010101 T
b1010101 a
b101011000000000000000000000000000000000000000000000000000000000 S
b101 .
b101 Q
b101 r
b1000 #
b1000 b
b1000 4
b1000 C
b1000 F
b1000 I
b1000 O
b1000 Y
b1000 ]
b1000 ^
b1000 h
b1000 j
b1010101 &
b1010101 e
b1010101 '
b1010101 _
b1010101 i
b10000000010101100000000000000000000000000000000000000000000000000000000010010000 M
b1001100 :
b1001100 N
b1001100 f
b1001100 g
1!
#40
0!
#45
b111110000 {
b1000 )
b1000 @
b1000 Z
b1000 |
b1000 $
b1000 c
b1000 *
b1000 A
b1000 L
b1000 7
b1000 ?
b1000 D
b0 6
b0 >
b0 G
b0 5
b0 =
b0 J
bx 2
bx U
bx \
0/
b100000000000000000000000000000000000000000000000000000000000 S
b1000 -
b1000 R
b1000 s
b1111 .
b1111 Q
b1111 r
b11 #
b11 b
b11 4
b11 C
b11 F
b11 I
b11 O
b11 Y
b11 ]
b11 ^
b11 h
b11 j
b1100000 &
b1100000 e
b1100000 '
b1100000 _
b1100000 i
b110000111110000000100000000000000000000000000000000000000000000000000000000000 M
b1010110 :
b1010110 N
b1010110 f
b1010110 g
1!
#50
0!
#55
b1000 p
b1 )
b1 @
b1 Z
b1 |
b1 7
b1 ?
b1 D
b1 $
b1 c
b1 *
b1 A
b1 L
b100000000000000000000000000000000000000000000000000000000 S
b1001 -
b1001 R
b1001 s
b1101010 &
b1101010 e
b1101010 '
b1101010 _
b1101010 i
b110000111110010000000100000000000000000000000000000000000000000000000000000000 M
b1100000 :
b1100000 N
b1100000 f
b1100000 g
1!
#60
0!
#65
b0 +
b0 E
b0 !"
b0 ,
b0 B
b0 [
b0 `
b0 ~
b1 q
18
b0 )
b0 @
b0 Z
b0 |
b0 $
b0 c
b0 *
b0 A
b0 L
1"
1<
b0 7
b0 ?
b0 D
b0 6
b0 >
b0 G
b11 5
b11 =
b11 J
b0 S
b0 -
b0 R
b0 s
b0 .
b0 Q
b0 r
b11 3
b11 H
b11 K
b11 P
b110 #
b110 b
b110 4
b110 C
b110 F
b110 I
b110 O
b110 Y
b110 ]
b110 ^
b110 h
b110 j
b1101100 &
b1101100 e
b1101100 '
b1101100 _
b1101100 i
b1100011000000000110001001100110011100001000110100000000000000000000000000000000 M
b1101010 :
b1101010 N
b1101010 f
b1101010 g
1!
#70
0!
#75
08
b100 )
b100 @
b100 Z
b100 |
b100 6
b100 >
b100 G
b100 7
b100 ?
b100 D
b100 +
b100 E
b100 !"
b100 ,
b100 B
b100 [
b100 `
b100 ~
b10 5
b10 =
b10 J
0"
0<
b110 -
b110 R
b110 s
b110 .
b110 Q
b110 r
b10 3
b10 H
b10 K
b10 P
b1101110 &
b1101110 e
b1101110 '
b1101110 _
b1101110 i
b1100010011001100111000010001101000000000000000000000000000000000000000000000000 M
b1101100 :
b1101100 N
b1101100 f
b1101100 g
1!
#80
0!
#85
b10001101 $
b10001101 c
b10001101 *
b10001101 A
b10001101 L
1"
1<
b1000110100000000000000000000000000000000000000000000000000000000 S
b1101 -
b1101 R
b1101 s
b1000 .
b1000 Q
b1000 r
b0 3
b0 H
b0 K
b0 P
b111 #
b111 b
b111 4
b111 C
b111 F
b111 I
b111 O
b111 Y
b111 ]
b111 ^
b111 h
b111 j
b1110111 &
b1110111 e
b1110111 '
b1110111 _
b1110111 i
b1110000100011010000000000000000000000000000000000000000000000000000000001010000 M
b1101110 :
b1101110 N
b1101110 f
b1101110 g
1!
#90
0!
#95
b1110111 $
b1110111 c
b1110111 *
b1110111 A
b1110111 L
b111011100000000000000000000000000000000000000000000000000000000 S
b111 -
b111 R
b111 s
b111 .
b111 Q
b111 r
b100 3
b100 H
b100 K
b100 P
b10010110 &
b10010110 e
b10010110 '
b10010110 _
b10010110 i
b1110100011101110000000000000000000000000000000000000000000000000000000010010000 M
b10001101 :
b10001101 N
b10001101 f
b10001101 g
1!
#100
0!
#105
b11000 6
b11000 >
b11000 G
b110100000000000011010000000000001101 %
b110100000000000011010000000000001101 d
b110100000000000011010000000000001101 (
b110100000000000011010000000000001101 X
b110100000000000011010000000000001101 }
b11000 +
b11000 E
b11000 !"
b0 ,
b0 B
b0 [
b0 `
b0 ~
b11000 )
b11000 @
b11000 Z
b11000 |
b0 $
b0 c
b0 *
b0 A
b0 L
b0 7
b0 ?
b0 D
b0 5
b0 =
b0 J
b11000 2
b11000 U
b11000 \
10
b0 S
b1010 .
b1010 Q
b1010 r
b0 3
b0 H
b0 K
b0 P
b101 #
b101 b
b101 4
b101 C
b101 F
b101 I
b101 O
b101 Y
b101 ]
b101 ^
b101 h
b101 j
b10000001 &
b10000001 e
b10000001 '
b10000001 _
b10000001 i
b1010000101001110000000000000000000000000000000000000000000000000000000000000000 M
b1110111 :
b1110111 N
b1110111 f
b1110111 g
1!
#110
0!
#115
18
b0 )
b0 @
b0 Z
b0 |
b0 6
b0 >
b0 G
b0 +
b0 E
b0 !"
b110100000000000011010000000000001101 k
1"
1<
b11 5
b11 =
b11 J
bx 2
bx U
bx \
00
b1011 -
b1011 R
b1011 s
b1011 .
b1011 Q
b1011 r
b11 3
b11 H
b11 K
b11 P
b110 #
b110 b
b110 4
b110 C
b110 F
b110 I
b110 O
b110 Y
b110 ]
b110 ^
b110 h
b110 j
b10000011 &
b10000011 e
b10000011 '
b10000011 _
b10000011 i
b1100011101110110110000110101011001001101011101001100000101000000110000010000111 M
b10000001 :
b10000001 N
b10000001 f
b10000001 g
1!
#120
0!
#125
0"
0<
1;
19
08
b1111111111111111111111111111001011111111111100101111111111110011 )
b1111111111111111111111111111001011111111111100101111111111110011 @
b1111111111111111111111111111001011111111111100101111111111110011 Z
b1111111111111111111111111111001011111111111100101111111111110011 |
b110100000000000011010000000000001101 7
b110100000000000011010000000000001101 ?
b110100000000000011010000000000001101 D
b110100000000000011010000000000001101 ,
b110100000000000011010000000000001101 B
b110100000000000011010000000000001101 [
b110100000000000011010000000000001101 `
b110100000000000011010000000000001101 ~
b1 5
b1 =
b1 J
b1010 .
b1010 Q
b1010 r
b1 3
b1 H
b1 K
b1 P
b10000101 &
b10000101 e
b10000101 '
b10000101 _
b10000101 i
b1100001101010110010011010111010011000001010000001100000100001110110000110010110 M
b10000011 :
b10000011 N
b10000011 f
b10000011 g
1!
#130
0!
#135
08
b1111111111111111111111111111001011111111111100101111111111110011 7
b1111111111111111111111111111001011111111111100101111111111110011 ?
b1111111111111111111111111111001011111111111100101111111111110011 D
b110100000000000011010000000000001101 +
b110100000000000011010000000000001101 E
b110100000000000011010000000000001101 !"
b1111111111111111111111111111001011111111111100101111111111110011 ,
b1111111111111111111111111111001011111111111100101111111111110011 B
b1111111111111111111111111111001011111111111100101111111111110011 [
b1111111111111111111111111111001011111111111100101111111111110011 `
b1111111111111111111111111111001011111111111100101111111111110011 ~
b1111111111111111111111111111001011111111111100101111111111110011 l
0;
19
b1111111111111111111111111111001011111111111100101111111111110011 )
b1111111111111111111111111111001011111111111100101111111111110011 @
b1111111111111111111111111111001011111111111100101111111111110011 Z
b1111111111111111111111111111001011111111111100101111111111110011 |
0"
0<
b0 5
b0 =
b0 J
b1010 -
b1010 R
b1010 s
b1011 .
b1011 Q
b1011 r
b110 3
b110 H
b110 K
b110 P
b10 #
b10 b
b10 4
b10 C
b10 F
b10 I
b10 O
b10 Y
b10 ]
b10 ^
b10 h
b10 j
b10000111 &
b10000111 e
b10000111 '
b10000111 _
b10000111 i
b100110101110100110000010100000011000001000011101100001100101100111010001110111 M
b10000101 :
b10000101 N
b10000101 f
b10000101 g
1!
#140
0!
#145
b110100000000000011010000000000001101 7
b110100000000000011010000000000001101 ?
b110100000000000011010000000000001101 D
b0 +
b0 E
b0 !"
b110100000000000011010000000000001101 ,
b110100000000000011010000000000001101 B
b110100000000000011010000000000001101 [
b110100000000000011010000000000001101 `
b110100000000000011010000000000001101 ~
09
08
b110100000000000011010000000000001101 )
b110100000000000011010000000000001101 @
b110100000000000011010000000000001101 Z
b110100000000000011010000000000001101 |
1"
1<
b0 6
b0 >
b0 G
b0 -
b0 R
b0 s
b1010 .
b1010 Q
b1010 r
b0 3
b0 H
b0 K
b0 P
b110 #
b110 b
b110 4
b110 C
b110 F
b110 I
b110 O
b110 Y
b110 ]
b110 ^
b110 h
b110 j
b10001001 &
b10001001 e
b10001001 '
b10001001 _
b10001001 i
b1100000101000000110000010000111011000011001011001110100011101110000000000000000 M
b10000111 :
b10000111 N
b10000111 f
b10000111 g
1!
#150
0!
#155
b100000 )
b100000 @
b100000 Z
b100000 |
b11000 6
b11000 >
b11000 G
b1000 7
b1000 ?
b1000 D
b11000 +
b11000 E
b11000 !"
b1000 ,
b1000 B
b1000 [
b1000 `
b1000 ~
b110100000000000011010000000000001101 t
b111 -
b111 R
b111 s
b1000 .
b1000 Q
b1000 r
b10001011 &
b10001011 e
b10001011 '
b10001011 _
b10001011 i
b1100000100001110110000110010110011101000111011100000000000000000000000000000000 M
b10001001 :
b10001001 N
b10001001 f
b10001001 g
1!
#160
0!
#165
b100 6
b100 >
b100 G
b1 7
b1 ?
b1 D
b100 +
b100 E
b100 !"
b1 ,
b1 B
b1 [
b1 `
b1 ~
b100000 x
b11 )
b11 @
b11 Z
b11 |
b1 5
b1 =
b1 J
0"
0<
b110 -
b110 R
b110 s
b1001 .
b1001 Q
b1001 r
b1 3
b1 H
b1 K
b1 P
b10001101 &
b10001101 e
b10001101 '
b10001101 _
b10001101 i
b1100001100101100111010001110111000000000000000000000000000000000000000000000000 M
b10001011 :
b10001011 N
b10001011 f
b10001011 g
1!
#170
0!
#175
b11 z
b1110111 $
b1110111 c
b1110111 *
b1110111 A
b1110111 L
1"
1<
b111011100000000000000000000000000000000000000000000000000000000 S
b111 -
b111 R
b111 s
b111 .
b111 Q
b111 r
b100 3
b100 H
b100 K
b100 P
b111 #
b111 b
b111 4
b111 C
b111 F
b111 I
b111 O
b111 Y
b111 ]
b111 ^
b111 h
b111 j
b10010110 &
b10010110 e
b10010110 '
b10010110 _
b10010110 i
b1110100011101110000000000000000000000000000000000000000000000000000000010010000 M
b10001101 :
b10001101 N
b10001101 f
b10001101 g
1!
#180
0!
#185
b100000 6
b100000 >
b100000 G
b1111111111111111111111110011111111111111001111111111111101000000 %
b1111111111111111111111110011111111111111001111111111111101000000 d
b1111111111111111111111110011111111111111001111111111111101000000 (
b1111111111111111111111110011111111111111001111111111111101000000 X
b1111111111111111111111110011111111111111001111111111111101000000 }
b100000 +
b100000 E
b100000 !"
b110100000000000011010000000000001101 ,
b110100000000000011010000000000001101 B
b110100000000000011010000000000001101 [
b110100000000000011010000000000001101 `
b110100000000000011010000000000001101 ~
b100000 )
b100000 @
b100000 Z
b100000 |
b0 $
b0 c
b0 *
b0 A
b0 L
b0 7
b0 ?
b0 D
b0 5
b0 =
b0 J
b100000 2
b100000 U
b100000 \
10
b0 S
b1010 .
b1010 Q
b1010 r
b0 3
b0 H
b0 K
b0 P
b101 #
b101 b
b101 4
b101 C
b101 F
b101 I
b101 O
b101 Y
b101 ]
b101 ^
b101 h
b101 j
b10000001 &
b10000001 e
b10000001 '
b10000001 _
b10000001 i
b1010000101001110000000000000000000000000000000000000000000000000000000000000000 M
b1110111 :
b1110111 N
b1110111 f
b1110111 g
1!
#190
0!
#195
1;
18
b1111111111111111111111111111001011111111111100101111111111110011 6
b1111111111111111111111111111001011111111111100101111111111110011 >
b1111111111111111111111111111001011111111111100101111111111110011 G
b1111111111111111111111111111001011111111111100101111111111110011 +
b1111111111111111111111111111001011111111111100101111111111110011 E
b1111111111111111111111111111001011111111111100101111111111110011 !"
b1111111111111111111111111111001011111111111100101111111111110011 ,
b1111111111111111111111111111001011111111111100101111111111110011 B
b1111111111111111111111111111001011111111111100101111111111110011 [
b1111111111111111111111111111001011111111111100101111111111110011 `
b1111111111111111111111111111001011111111111100101111111111110011 ~
b1111111111111111111111110011111111111111001111111111111101000000 k
b0 )
b0 @
b0 Z
b0 |
1"
1<
b1111111111111111111111111111001011111111111100101111111111110011 7
b1111111111111111111111111111001011111111111100101111111111110011 ?
b1111111111111111111111111111001011111111111100101111111111110011 D
b11 5
b11 =
b11 J
bx 2
bx U
bx \
00
b1011 -
b1011 R
b1011 s
b1011 .
b1011 Q
b1011 r
b11 3
b11 H
b11 K
b11 P
b110 #
b110 b
b110 4
b110 C
b110 F
b110 I
b110 O
b110 Y
b110 ]
b110 ^
b110 h
b110 j
b10000011 &
b10000011 e
b10000011 '
b10000011 _
b10000011 i
b1100011101110110110000110101011001001101011101001100000101000000110000010000111 M
b10000001 :
b10000001 N
b10000001 f
b10000001 g
1!
#200
0!
#205
0"
0<
0;
b0 6
b0 >
b0 G
b0 +
b0 E
b0 !"
08
b1100000000000000110000000000000011000000 )
b1100000000000000110000000000000011000000 @
b1100000000000000110000000000000011000000 Z
b1100000000000000110000000000000011000000 |
b1111111111111111111111110011111111111111001111111111111101000000 7
b1111111111111111111111110011111111111111001111111111111101000000 ?
b1111111111111111111111110011111111111111001111111111111101000000 D
b1111111111111111111111110011111111111111001111111111111101000000 ,
b1111111111111111111111110011111111111111001111111111111101000000 B
b1111111111111111111111110011111111111111001111111111111101000000 [
b1111111111111111111111110011111111111111001111111111111101000000 `
b1111111111111111111111110011111111111111001111111111111101000000 ~
b0 l
b1 5
b1 =
b1 J
b1010 .
b1010 Q
b1010 r
b1 3
b1 H
b1 K
b1 P
b10000101 &
b10000101 e
b10000101 '
b10000101 _
b10000101 i
b1100001101010110010011010111010011000001010000001100000100001110110000110010110 M
b10000011 :
b10000011 N
b10000011 f
b10000011 g
1!
#210
0!
#215
08
b1100000000000000110000000000000011000000 7
b1100000000000000110000000000000011000000 ?
b1100000000000000110000000000000011000000 D
b1111111111111111111111110011111111111111001111111111111101000000 +
b1111111111111111111111110011111111111111001111111111111101000000 E
b1111111111111111111111110011111111111111001111111111111101000000 !"
b1100000000000000110000000000000011000000 ,
b1100000000000000110000000000000011000000 B
b1100000000000000110000000000000011000000 [
b1100000000000000110000000000000011000000 `
b1100000000000000110000000000000011000000 ~
b1100000000000000110000000000000011000000 l
09
b1100000000000000110000000000000011000000 )
b1100000000000000110000000000000011000000 @
b1100000000000000110000000000000011000000 Z
b1100000000000000110000000000000011000000 |
1"
1<
b0 5
b0 =
b0 J
b1010 -
b1010 R
b1010 s
b1011 .
b1011 Q
b1011 r
b110 3
b110 H
b110 K
b110 P
b10 #
b10 b
b10 4
b10 C
b10 F
b10 I
b10 O
b10 Y
b10 ]
b10 ^
b10 h
b10 j
b10000111 &
b10000111 e
b10000111 '
b10000111 _
b10000111 i
b100110101110100110000010100000011000001000011101100001100101100111010001110111 M
b10000101 :
b10000101 N
b10000101 f
b10000101 g
1!
#220
0!
#225
09
b1100000000000000110000000000000011000000 7
b1100000000000000110000000000000011000000 ?
b1100000000000000110000000000000011000000 D
b110100000000000011010000000000001101 +
b110100000000000011010000000000001101 E
b110100000000000011010000000000001101 !"
b1100000000000000110000000000000011000000 ,
b1100000000000000110000000000000011000000 B
b1100000000000000110000000000000011000000 [
b1100000000000000110000000000000011000000 `
b1100000000000000110000000000000011000000 ~
b1100000000000000110000000000000011000000 k
08
b1100110100000000110011010000000011001101 )
b1100110100000000110011010000000011001101 @
b1100110100000000110011010000000011001101 Z
b1100110100000000110011010000000011001101 |
b110100000000000011010000000000001101 6
b110100000000000011010000000000001101 >
b110100000000000011010000000000001101 G
b0 -
b0 R
b0 s
b1010 .
b1010 Q
b1010 r
b0 3
b0 H
b0 K
b0 P
b110 #
b110 b
b110 4
b110 C
b110 F
b110 I
b110 O
b110 Y
b110 ]
b110 ^
b110 h
b110 j
b10001001 &
b10001001 e
b10001001 '
b10001001 _
b10001001 i
b1100000101000000110000010000111011000011001011001110100011101110000000000000000 M
b10000111 :
b10000111 N
b10000111 f
b10000111 g
1!
#230
0!
#235
b101000 )
b101000 @
b101000 Z
b101000 |
b100000 6
b100000 >
b100000 G
b1000 7
b1000 ?
b1000 D
b100000 +
b100000 E
b100000 !"
b1000 ,
b1000 B
b1000 [
b1000 `
b1000 ~
b1100110100000000110011010000000011001101 t
b111 -
b111 R
b111 s
b1000 .
b1000 Q
b1000 r
b10001011 &
b10001011 e
b10001011 '
b10001011 _
b10001011 i
b1100000100001110110000110010110011101000111011100000000000000000000000000000000 M
b10001001 :
b10001001 N
b10001001 f
b10001001 g
1!
#240
0!
#245
b11 6
b11 >
b11 G
b1 7
b1 ?
b1 D
b11 +
b11 E
b11 !"
b1 ,
b1 B
b1 [
b1 `
b1 ~
b101000 x
b10 )
b10 @
b10 Z
b10 |
b1 5
b1 =
b1 J
0"
0<
b110 -
b110 R
b110 s
b1001 .
b1001 Q
b1001 r
b1 3
b1 H
b1 K
b1 P
b10001101 &
b10001101 e
b10001101 '
b10001101 _
b10001101 i
b1100001100101100111010001110111000000000000000000000000000000000000000000000000 M
b10001011 :
b10001011 N
b10001011 f
b10001011 g
1!
#250
0!
#255
b10 z
b1110111 $
b1110111 c
b1110111 *
b1110111 A
b1110111 L
1"
1<
b111011100000000000000000000000000000000000000000000000000000000 S
b111 -
b111 R
b111 s
b111 .
b111 Q
b111 r
b100 3
b100 H
b100 K
b100 P
b111 #
b111 b
b111 4
b111 C
b111 F
b111 I
b111 O
b111 Y
b111 ]
b111 ^
b111 h
b111 j
b10010110 &
b10010110 e
b10010110 '
b10010110 _
b10010110 i
b1110100011101110000000000000000000000000000000000000000000000000000000010010000 M
b10001101 :
b10001101 N
b10001101 f
b10001101 g
1!
#260
0!
#265
b101000 6
b101000 >
b101000 G
b10110000000000001011000000000000101100000000 %
b10110000000000001011000000000000101100000000 d
b10110000000000001011000000000000101100000000 (
b10110000000000001011000000000000101100000000 X
b10110000000000001011000000000000101100000000 }
b101000 +
b101000 E
b101000 !"
b1100000000000000110000000000000011000000 ,
b1100000000000000110000000000000011000000 B
b1100000000000000110000000000000011000000 [
b1100000000000000110000000000000011000000 `
b1100000000000000110000000000000011000000 ~
b101000 )
b101000 @
b101000 Z
b101000 |
b0 $
b0 c
b0 *
b0 A
b0 L
b0 7
b0 ?
b0 D
b0 5
b0 =
b0 J
b101000 2
b101000 U
b101000 \
10
b0 S
b1010 .
b1010 Q
b1010 r
b0 3
b0 H
b0 K
b0 P
b101 #
b101 b
b101 4
b101 C
b101 F
b101 I
b101 O
b101 Y
b101 ]
b101 ^
b101 h
b101 j
b10000001 &
b10000001 e
b10000001 '
b10000001 _
b10000001 i
b1010000101001110000000000000000000000000000000000000000000000000000000000000000 M
b1110111 :
b1110111 N
b1110111 f
b1110111 g
1!
#270
0!
#275
18
b1100000000000000110000000000000011000000 6
b1100000000000000110000000000000011000000 >
b1100000000000000110000000000000011000000 G
b1100000000000000110000000000000011000000 +
b1100000000000000110000000000000011000000 E
b1100000000000000110000000000000011000000 !"
b10110000000000001011000000000000101100000000 k
b0 )
b0 @
b0 Z
b0 |
1"
1<
b1100000000000000110000000000000011000000 7
b1100000000000000110000000000000011000000 ?
b1100000000000000110000000000000011000000 D
b11 5
b11 =
b11 J
bx 2
bx U
bx \
00
b1011 -
b1011 R
b1011 s
b1011 .
b1011 Q
b1011 r
b11 3
b11 H
b11 K
b11 P
b110 #
b110 b
b110 4
b110 C
b110 F
b110 I
b110 O
b110 Y
b110 ]
b110 ^
b110 h
b110 j
b10000011 &
b10000011 e
b10000011 '
b10000011 _
b10000011 i
b1100011101110110110000110101011001001101011101001100000101000000110000010000111 M
b10000001 :
b10000001 N
b10000001 f
b10000001 g
1!
#280
0!
#285
b0 6
b0 >
b0 G
b0 +
b0 E
b0 !"
0"
0<
1;
19
08
b1111111111111111111101001111111111110100111111111111010100000000 )
b1111111111111111111101001111111111110100111111111111010100000000 @
b1111111111111111111101001111111111110100111111111111010100000000 Z
b1111111111111111111101001111111111110100111111111111010100000000 |
b10110000000000001011000000000000101100000000 7
b10110000000000001011000000000000101100000000 ?
b10110000000000001011000000000000101100000000 D
b10110000000000001011000000000000101100000000 ,
b10110000000000001011000000000000101100000000 B
b10110000000000001011000000000000101100000000 [
b10110000000000001011000000000000101100000000 `
b10110000000000001011000000000000101100000000 ~
b0 l
b1 5
b1 =
b1 J
b1010 .
b1010 Q
b1010 r
b1 3
b1 H
b1 K
b1 P
b10000101 &
b10000101 e
b10000101 '
b10000101 _
b10000101 i
b1100001101010110010011010111010011000001010000001100000100001110110000110010110 M
b10000011 :
b10000011 N
b10000011 f
b10000011 g
1!
#290
0!
