Y86-64-Single-Cycle/bin/Y86-output.txt
VCD info: dumpfile wave.vcd opened for output.
                  10                    0                    0                    0                    0                  512                    0                    0                    0                    0                    0                    0                    0                    0                    0                    0 1
                  56                    0                    0                    0                    0                  504                    0                    0                    0                    0                    0                    0                    0                    0                    0                    0 1
                  66                    0                    0                    0                    0                  504                    0                    0                   24                    0                    0                    0                    0                    0                    0                    0 1
                  76                    0                    0                    0                    0                  504                    0                    4                   24                    0                    0                    0                    0                    0                    0                    0 1
                  86                    0                    0                    0                    0                  496                    0                    4                   24                    0                    0                    0                    0                    0                    0                    0 1
                  96                    0                    0                    0                    0                  496                    0                    4                   24                    8                    0                    0                    0                    0                    0                    0 1
                 106                    0                    0                    0                    0                  496                    0                    4                   24                    8                    1                    0                    0                    0                    0                    0 1
                 108                    0                    0                    0                    0                  496                    0                    4                   24                    8                    1                    0                    0                    0                    0                    0 1
                 110                    0                    0                    0                    0                  496                    0                    4                   24                    8                    1                    0                    0                    0                    0                    0 1
                 141                    0                    0                    0                    0                  496                    0                    4                   24                    8                    1                    0                    0                    0                    0                    0 1
                 119                    0                    0                    0                    0                  496                    0                    4                   24                    8                    1                    0                    0                    0                    0                    0 1
                 129                    0                    0                    0                    0                  496                    0                    4                   24                    8                    1          55835426829                    0                    0                    0                    0 1
                 131                    0                    0                    0                    0                  496                    0                    4                   24                    8                    1          55835426829                    0                    0                    0                    0 1
                 133                    0                    0                    0                    0                  496                    0                    4                   24                    8                    1          55835426829         -55835426829                    0                    0                    0 1
                 135                    0                    0                    0                    0                  496                    0                    4                   24                    8                    1          55835426829         -55835426829                    0                    0                    0 1
                 137          55835426829                    0                    0                    0                  496                    0                    4                   24                    8                    1          55835426829         -55835426829                    0                    0                    0 1
                 139          55835426829                    0                    0                    0                  496                    0                    4                   32                    8                    1          55835426829         -55835426829                    0                    0                    0 1
                 141          55835426829                    0                    0                    0                  496                    0                    3                   32                    8                    1          55835426829         -55835426829                    0                    0                    0 1
                 119          55835426829                    0                    0                    0                  496                    0                    3                   32                    8                    1          55835426829         -55835426829                    0                    0                    0 1
                 129          55835426829                    0                    0                    0                  496                    0                    3                   32                    8                    1        -824646303936         -55835426829                    0                    0                    0 1
                 131          55835426829                    0                    0                    0                  496                    0                    3                   32                    8                    1        -824646303936                    0                    0                    0                    0 1
                 133          55835426829                    0                    0                    0                  496                    0                    3                   32                    8                    1        -824646303936         824646303936                    0                    0                    0 1
                 135          55835426829                    0                    0                    0                  496                    0                    3                   32                    8                    1         824646303936         824646303936                    0                    0                    0 1
                 137         880481730765                    0                    0                    0                  496                    0                    3                   32                    8                    1         824646303936         824646303936                    0                    0                    0 1
                 139         880481730765                    0                    0                    0                  496                    0                    3                   40                    8                    1         824646303936         824646303936                    0                    0                    0 1
                 141         880481730765                    0                    0                    0                  496                    0                    2                   40                    8                    1         824646303936         824646303936                    0                    0                    0 1
                 119         880481730765                    0                    0                    0                  496                    0                    2                   40                    8                    1         824646303936         824646303936                    0                    0                    0 1
                 129         880481730765                    0                    0                    0                  496                    0                    2                   40                    8                    1       12094812457728         824646303936                    0                    0                    0 1
                 131         880481730765                    0                    0                    0                  496                    0                    2                   40                    8                    1       12094812457728                    0                    0                    0                    0 1
                 133         880481730765                    0                    0                    0                  496                    0                    2                   40                    8                    1       12094812457728      -12094812457728                    0                    0                    0 1
                 135         880481730765                    0                    0                    0                  496                    0                    2                   40                    8                    1       12094812457728      -12094812457728                    0                    0                    0 1
                 137       12975294188493                    0                    0                    0                  496                    0                    2                   40                    8                    1       12094812457728      -12094812457728                    0                    0                    0 1
                 139       12975294188493                    0                    0                    0                  496                    0                    2                   48                    8                    1       12094812457728      -12094812457728                    0                    0                    0 1
                 141       12975294188493                    0                    0                    0                  496                    0                    1                   48                    8                    1       12094812457728      -12094812457728                    0                    0                    0 1
                 119       12975294188493                    0                    0                    0                  496                    0                    1                   48                    8                    1       12094812457728      -12094812457728                    0                    0                    0 1
                 129       12975294188493                    0                    0                    0                  496                    0                    1                   48                    8                    1     -175924544839680      -12094812457728                    0                    0                    0 1
                 131       12975294188493                    0                    0                    0                  496                    0                    1                   48                    8                    1     -175924544839680                    0                    0                    0                    0 1
                 133       12975294188493                    0                    0                    0                  496                    0                    1                   48                    8                    1     -175924544839680      175924544839680                    0                    0                    0 1
                 135       12975294188493                    0                    0                    0                  496                    0                    1                   48                    8                    1      175924544839680      175924544839680                    0                    0                    0 1
                 137      188899839028173                    0                    0                    0                  496                    0                    1                   48                    8                    1      175924544839680      175924544839680                    0                    0                    0 1
                 139      188899839028173                    0                    0                    0                  496                    0                    1                   56                    8                    1      175924544839680      175924544839680                    0                    0                    0 1
                 141      188899839028173                    0                    0                    0                  496                    0                    0                   56                    8                    1      175924544839680      175924544839680                    0                    0                    0 1
                 150      188899839028173                    0                    0                    0                  496                    0                    0                   56                    8                    1      175924544839680      175924544839680                    0                    0                    0 1
                  85      188899839028173                    0                    0                    0                  504                    0                    0                   56                    8                    1      175924544839680      175924544839680                    0                    0                    0 1
                  85      188899839028173                    0                    0                    0                  512                    0                    0                   56                    8                    1      175924544839680      175924544839680                    0                    0                    0 1
                  19      188899839028173                    0                    0                    0                  520                    0                    0                   56                    8                    1      175924544839680      175924544839680                    0                    0                    0 2
                  19      188899839028173                    0                    0                    0                  520                    0                    0                   56                    8                    1      175924544839680      175924544839680                    0                    0                    0 2
                  19      188899839028173                    0                    0                    0                  520                    0                    0                   56                    8                    1      175924544839680      175924544839680                    0                    0                    0 2
                  19      188899839028173                    0                    0                    0                  520                    0                    0                   56                    8                    1      175924544839680      175924544839680                    0                    0                    0 2
                  19      188899839028173                    0                    0                    0                  520                    0                    0                   56                    8                    1      175924544839680      175924544839680                    0                    0                    0 2
                  19      188899839028173                    0                    0                    0                  520                    0                    0                   56                    8                    1      175924544839680      175924544839680                    0                    0                    0 2
                  19      188899839028173                    0                    0                    0                  520                    0                    0                   56                    8                    1      175924544839680      175924544839680                    0                    0                    0 2
                  19      188899839028173                    0                    0                    0                  520                    0                    0                   56                    8                    1      175924544839680      175924544839680                    0                    0                    0 2
                  19      188899839028173                    0                    0                    0                  520                    0                    0                   56                    8                    1      175924544839680      175924544839680                    0                    0                    0 2
                  19      188899839028173                    0                    0                    0                  520                    0                    0                   56                    8                    1      175924544839680      175924544839680                    0                    0                    0 2
                  19      188899839028173                    0                    0                    0                  520                    0                    0                   56                    8                    1      175924544839680      175924544839680                    0                    0                    0 2
                  19      188899839028173                    0                    0                    0                  520                    0                    0                   56                    8                    1      175924544839680      175924544839680                    0                    0                    0 2
                  19      188899839028173                    0                    0                    0                  520                    0                    0                   56                    8                    1      175924544839680      175924544839680                    0                    0                    0 2
                  19      188899839028173                    0                    0                    0                  520                    0                    0                   56                    8                    1      175924544839680      175924544839680                    0                    0                    0 2
                  19      188899839028173                    0                    0                    0                  520                    0                    0                   56                    8                    1      175924544839680      175924544839680                    0                    0                    0 2
                  19      188899839028173                    0                    0                    0                  520                    0                    0                   56                    8                    1      175924544839680      175924544839680                    0                    0                    0 2
                  19      188899839028173                    0                    0                    0                  520                    0                    0                   56                    8                    1      175924544839680      175924544839680                    0                    0                    0 2
                  19      188899839028173                    0                    0                    0                  520                    0                    0                   56                    8                    1      175924544839680      175924544839680                    0                    0                    0 2
                  19      188899839028173                    0                    0                    0                  520                    0                    0                   56                    8                    1      175924544839680      175924544839680                    0                    0                    0 2
                  19      188899839028173                    0                    0                    0                  520                    0                    0                   56                    8                    1      175924544839680      175924544839680                    0                    0                    0 2
                  19      188899839028173                    0                    0                    0                  520                    0                    0                   56                    8                    1      175924544839680      175924544839680                    0                    0                    0 2
                  19      188899839028173                    0                    0                    0                  520                    0                    0                   56                    8                    1      175924544839680      175924544839680                    0                    0                    0 2
                  19      188899839028173                    0                    0                    0                  520                    0                    0                   56                    8                    1      175924544839680      175924544839680                    0                    0                    0 2
                  19      188899839028173                    0                    0                    0                  520                    0                    0                   56                    8                    1      175924544839680      175924544839680                    0                    0                    0 2
                  19      188899839028173                    0                    0                    0                  520                    0                    0                   56                    8                    1      175924544839680      175924544839680                    0                    0                    0 2
                  19      188899839028173                    0                    0                    0                  520                    0                    0                   56                    8                    1      175924544839680      175924544839680                    0                    0                    0 2
                  19      188899839028173                    0                    0                    0                  520                    0                    0                   56                    8                    1      175924544839680      175924544839680                    0                    0                    0 2
                  19      188899839028173                    0                    0                    0                  520                    0                    0                   56                    8                    1      175924544839680      175924544839680                    0                    0                    0 2
                  19      188899839028173                    0                    0                    0                  520                    0                    0                   56                    8                    1      175924544839680      175924544839680                    0                    0                    0 2
                  19      188899839028173                    0                    0                    0                  520                    0                    0                   56                    8                    1      175924544839680      175924544839680                    0                    0                    0 2
                  19      188899839028173                    0                    0                    0                  520                    0                    0                   56                    8                    1      175924544839680      175924544839680                    0                    0                    0 2
                  19      188899839028173                    0                    0                    0                  520                    0                    0                   56                    8                    1      175924544839680      175924544839680                    0                    0                    0 2
                  19      188899839028173                    0                    0                    0                  520                    0                    0                   56                    8                    1      175924544839680      175924544839680                    0                    0                    0 2
                  19      188899839028173                    0                    0                    0                  520                    0                    0                   56                    8                    1      175924544839680      175924544839680                    0                    0                    0 2
                  19      188899839028173                    0                    0                    0                  520                    0                    0                   56                    8                    1      175924544839680      175924544839680                    0                    0                    0 2
                  19      188899839028173                    0                    0                    0                  520                    0                    0                   56                    8                    1      175924544839680      175924544839680                    0                    0                    0 2
                  19      188899839028173                    0                    0                    0                  520                    0                    0                   56                    8                    1      175924544839680      175924544839680                    0                    0                    0 2
                  19      188899839028173                    0                    0                    0                  520                    0                    0                   56                    8                    1      175924544839680      175924544839680                    0                    0                    0 2
                  19      188899839028173                    0                    0                    0                  520                    0                    0                   56                    8                    1      175924544839680      175924544839680                    0                    0                    0 2
                  19      188899839028173                    0                    0                    0                  520                    0                    0                   56                    8                    1      175924544839680      175924544839680                    0                    0                    0 2
                  19      188899839028173                    0                    0                    0                  520                    0                    0                   56                    8                    1      175924544839680      175924544839680                    0                    0                    0 2
                  19      188899839028173                    0                    0                    0                  520                    0                    0                   56                    8                    1      175924544839680      175924544839680                    0                    0                    0 2
                  19      188899839028173                    0                    0                    0                  520                    0                    0                   56                    8                    1      175924544839680      175924544839680                    0                    0                    0 2
                  19      188899839028173                    0                    0                    0                  520                    0                    0                   56                    8                    1      175924544839680      175924544839680                    0                    0                    0 2
                  19      188899839028173                    0                    0                    0                  520                    0                    0                   56                    8                    1      175924544839680      175924544839680                    0                    0                    0 2
                  19      188899839028173                    0                    0                    0                  520                    0                    0                   56                    8                    1      175924544839680      175924544839680                    0                    0                    0 2
                  19      188899839028173                    0                    0                    0                  520                    0                    0                   56                    8                    1      175924544839680      175924544839680                    0                    0                    0 2
                  19      188899839028173                    0                    0                    0                  520                    0                    0                   56                    8                    1      175924544839680      175924544839680                    0                    0                    0 2
                  19      188899839028173                    0                    0                    0                  520                    0                    0                   56                    8                    1      175924544839680      175924544839680                    0                    0                    0 2
                  19      188899839028173                    0                    0                    0                  520                    0                    0                   56                    8                    1      175924544839680      175924544839680                    0                    0                    0 2
                  19      188899839028173                    0                    0                    0                  520                    0                    0                   56                    8                    1      175924544839680      175924544839680                    0                    0                    0 2
                  19      188899839028173                    0                    0                    0                  520                    0                    0                   56                    8                    1      175924544839680      175924544839680                    0                    0                    0 2
                  19      188899839028173                    0                    0                    0                  520                    0                    0                   56                    8                    1      175924544839680      175924544839680                    0                    0                    0 2
                  19      188899839028173                    0                    0                    0                  520                    0                    0                   56                    8                    1      175924544839680      175924544839680                    0                    0                    0 2
                  19      188899839028173                    0                    0                    0                  520                    0                    0                   56                    8                    1      175924544839680      175924544839680                    0                    0                    0 2
