RISC-V-SIngle-Cycle/bin/wave.vcd
$date
	Tue Dec  5 15:39:18 2023
$end
$version
	Icarus Verilog
$end
$timescale
	1ns
$end
$scope module arch_tb $end
$var reg 1 ! PCrst $end
$var reg 1 " clk $end
$scope module u_arch $end
$var wire 64 # ALU1 [63:0] $end
$var wire 1 ! PCrst $end
$var wire 1 " clk $end
$var wire 1 $ u_Less $end
$var wire 1 % s_Less $end
$var wire 1 & Zero $end
$var wire 64 ' WriteData [63:0] $end
$var wire 64 ( ShiftImm [63:0] $end
$var wire 1 ) RegWrite $end
$var wire 64 * ReadData2 [63:0] $end
$var wire 64 + ReadData1 [63:0] $end
$var wire 64 , PCaddress [63:0] $end
$var wire 64 - PCSum [63:0] $end
$var wire 64 . PCPlus4 [63:0] $end
$var wire 1 / MemtoReg $end
$var wire 1 0 MemWrite $end
$var wire 1 1 MemRead $end
$var wire 64 2 MemData [63:0] $end
$var wire 1 3 Jump $end
$var wire 32 4 Instruction [31:0] $end
$var wire 64 5 ExImm [63:0] $end
$var wire 1 6 Branch_jump $end
$var wire 1 7 Branch $end
$var wire 64 8 ALU_result [63:0] $end
$var wire 4 9 ALU_control [3:0] $end
$var wire 1 : ALUSrc $end
$var wire 2 ; ALUOp [1:0] $end
$var wire 64 < ALU2 [63:0] $end
$var reg 64 = PCnext [63:0] $end
$scope module u_ALU $end
$var wire 64 > A1 [63:0] $end
$var wire 64 ? A2 [63:0] $end
$var wire 1 & zero $end
$var wire 4 @ ALU_control [3:0] $end
$var reg 64 A Y [63:0] $end
$var reg 1 % s_less $end
$var reg 1 $ u_less $end
$upscope $end
$scope module u_ALUControl $end
$var wire 3 B funct3 [2:0] $end
$var wire 1 C funct7 $end
$var wire 2 D ALUOp [1:0] $end
$var reg 4 E ALU_control [3:0] $end
$upscope $end
$scope module u_BranchJudge $end
$var wire 3 F funct3 [2:0] $end
$var wire 1 % s_less $end
$var wire 1 $ u_less $end
$var wire 1 & zero $end
$var wire 1 7 Branch $end
$var reg 1 6 Branch_jump $end
$upscope $end
$scope module u_Control $end
$var wire 7 G Opcode [6:0] $end
$var wire 1 ) RegWrite $end
$var wire 1 / MemtoReg $end
$var wire 1 0 MemWrite $end
$var wire 1 1 MemRead $end
$var wire 1 3 Jump $end
$var wire 1 7 Branch $end
$var wire 1 : ALUSrc $end
$var wire 2 H ALUOp [1:0] $end
$var reg 9 I control [8:0] $end
$upscope $end
$scope module u_DataMemory $end
$var wire 1 1 MemRead $end
$var wire 1 0 MemWrite $end
$var wire 64 J address [63:0] $end
$var wire 1 " clk $end
$var wire 64 K WriteData [63:0] $end
$var reg 64 L ReadData [63:0] $end
$upscope $end
$scope module u_ImmGen $end
$var wire 32 M In [31:0] $end
$var reg 64 N Out [63:0] $end
$upscope $end
$scope module u_InstructionMemory $end
$var wire 64 O pc_address [63:0] $end
$var reg 32 P instruction [31:0] $end
$upscope $end
$scope module u_PC $end
$var wire 64 Q PCnext [63:0] $end
$var wire 1 ! PCrst $end
$var wire 1 " clk $end
$var reg 64 R PCaddress [63:0] $end
$upscope $end
$scope module u_PC4Add $end
$var wire 64 S PC [63:0] $end
$var wire 64 T PCPlus4 [63:0] $end
$upscope $end
$scope module u_PCAdd $end
$var wire 64 U PCaddress [63:0] $end
$var wire 64 V ShiftImm [63:0] $end
$var wire 64 W PCSum [63:0] $end
$upscope $end
$scope module u_Registers $end
$var wire 5 X ReadReg1 [4:0] $end
$var wire 5 Y ReadReg2 [4:0] $end
$var wire 1 ) RegWrite $end
$var wire 64 Z WriteData [63:0] $end
$var wire 5 [ WriteReg [4:0] $end
$var wire 1 " clk $end
$var wire 64 \ x0 [63:0] $end
$var wire 64 ] x1 [63:0] $end
$var wire 64 ^ x2 [63:0] $end
$var wire 64 _ x3 [63:0] $end
$var wire 64 ` x4 [63:0] $end
$var wire 64 a x5 [63:0] $end
$var wire 64 b x6 [63:0] $end
$var reg 64 c ReadData1 [63:0] $end
$var reg 64 d ReadData2 [63:0] $end
$upscope $end
$scope module u_ShiftLeft1 $end
$var wire 64 e In [63:0] $end
$var wire 64 f out [63:0] $end
$upscope $end
$upscope $end
$upscope $end
$enddefinitions $end
#0
$dumpvars
bx0 f
bx e
bx d
bx c
bx b
bx a
bx `
bx _
bx ^
bx ]
b0 \
bx [
bx Z
bx Y
bx X
bx W
bx0 V
bx U
bx T
bx S
bx R
bx Q
bx P
bx O
bx N
bx M
bx L
bx K
bx J
bx I
bx H
bx G
bx F
bx E
bx D
xC
bx B
bx A
bx @
bx ?
bx >
bx =
bx <
bx ;
x:
bx 9
bx 8
x7
06
bx 5
bx 4
x3
bx 2
x1
x0
x/
bx .
bx -
bx ,
bx +
bx *
x)
bx0 (
bx '
x&
x%
x$
bx #
0"
x!
$end
#5
1!
#10
0&
b11 '
b11 Z
b11 8
b11 A
b11 J
b10 9
b10 @
b10 E
1$
1%
b11 <
b11 ?
b100 =
b100 Q
1:
0/
1)
01
00
07
03
b11 ;
b11 D
b11 H
b110 -
b110 W
b110 (
b110 V
b110 f
b101000011 I
b11 5
b11 N
b11 e
b0 #
b0 >
b0 +
b0 c
06
b0 B
0C
b1 [
b11 Y
b0 X
b10011 G
b0 F
b1100000000000010010011 4
b1100000000000010010011 M
b1100000000000010010011 P
b100 .
b100 T
b0 ,
b0 O
b0 R
b0 S
b0 U
1"
#20
0"
0!
#30
1&
b0 '
b0 Z
0$
0%
b0 8
b0 A
b0 J
b0 (
b0 V
b0 f
b0 <
b0 ?
b0 5
b0 N
b0 e
b0 *
b0 K
b0 d
b10 [
b0 Y
b1000 =
b1000 Q
b100010011 4
b100010011 M
b100010011 P
b11 ]
b1000 .
b1000 T
b100 -
b100 W
b100 ,
b100 O
b100 R
b100 S
b100 U
1"
#40
0"
#50
0&
bx '
bx Z
1$
1%
b110 8
b110 A
b110 J
1/
x1
x0
13
b0 ;
b0 D
b0 H
b1100 (
b1100 V
b1100 f
b110 <
b110 ?
b111xx0100 I
b110 5
b110 N
b110 e
bx *
bx K
bx d
b0 [
b1100 Y
b1101111 G
b10100 =
b10100 Q
b110000000000000001101111 4
b110000000000000001101111 M
b110000000000000001101111 P
b1100 .
b1100 T
b10100 -
b10100 W
b1000 ,
b1000 O
b1000 R
b1000 S
b1000 U
b0 ^
1"
#60
0"
#70
b110 9
b110 @
b110 E
0$
16
0%
0:
x/
0)
01
00
17
03
b1 ;
b1 D
b1 H
b1111111111111111111111111111111111111111111111111111111111111000 (
b1111111111111111111111111111111111111111111111111111111111111000 V
b1111111111111111111111111111111111111111111111111111111111111000 f
b0 <
b0 ?
b0x0001001 I
b1111111111111111111111111111111111111111111111111111111111111100 5
b1111111111111111111111111111111111111111111111111111111111111100 N
b1111111111111111111111111111111111111111111111111111111111111100 e
b11 8
b11 A
b11 J
b0 *
b0 K
b0 d
b11 #
b11 >
b11 +
b11 c
b1 B
1C
b11001 [
b0 Y
b1 X
b1100011 G
b1 F
b1100 =
b1100 Q
b11111110000000001001110011100011 4
b11111110000000001001110011100011 M
b11111110000000001001110011100011 P
b11000 .
b11000 T
b1100 -
b1100 W
b10100 ,
b10100 O
b10100 R
b10100 S
b10100 U
1"
#80
0"
#90
b10 9
b10 @
b10 E
b11 '
b11 Z
0/
1)
07
b10 ;
b10 D
b10 H
b0 (
b0 V
b0 f
b1000010 I
b0 5
b0 N
b0 e
1$
1%
0&
b11 <
b11 ?
b11 8
b11 A
b11 J
b11 *
b11 K
b11 d
b0 #
b0 >
b0 +
b0 c
06
b0 B
0C
b10 [
b1 Y
b10 X
b110011 G
b0 F
b10000 =
b10000 Q
b100010000000100110011 4
b100010000000100110011 M
b100010000000100110011 P
b10000 .
b10000 T
b1100 -
b1100 W
b1100 ,
b1100 O
b1100 R
b1100 S
b1100 U
1"
#100
0"
#110
1:
b11 ;
b11 D
b11 H
b1111111111111111111111111111111111111111111111111111111111111110 (
b1111111111111111111111111111111111111111111111111111111111111110 V
b1111111111111111111111111111111111111111111111111111111111111110 f
b10 9
b10 @
b10 E
b101000011 I
b1111111111111111111111111111111111111111111111111111111111111111 5
b1111111111111111111111111111111111111111111111111111111111111111 N
b1111111111111111111111111111111111111111111111111111111111111111 e
0&
b10 '
b10 Z
b1111111111111111111111111111111111111111111111111111111111111111 <
b1111111111111111111111111111111111111111111111111111111111111111 ?
1$
0%
b10 8
b10 A
b10 J
bx *
bx K
bx d
b11 #
b11 >
b11 +
b11 c
1C
b1 [
b11111 Y
b1 X
b10011 G
b10100 =
b10100 Q
b11111111111100001000000010010011 4
b11111111111100001000000010010011 M
b11111111111100001000000010010011 P
b11 ^
b10100 .
b10100 T
b1110 -
b1110 W
b10000 ,
b10000 O
b10000 R
b10000 S
b10000 U
1"
#120
0"
#130
0$
0&
16
0:
x/
0)
17
b1 ;
b1 D
b1 H
b1111111111111111111111111111111111111111111111111111111111111000 (
b1111111111111111111111111111111111111111111111111111111111111000 V
b1111111111111111111111111111111111111111111111111111111111111000 f
b0 <
b0 ?
b110 9
b110 @
b110 E
b0x0001001 I
b1111111111111111111111111111111111111111111111111111111111111100 5
b1111111111111111111111111111111111111111111111111111111111111100 N
b1111111111111111111111111111111111111111111111111111111111111100 e
bx '
bx Z
b10 8
b10 A
b10 J
b0 *
b0 K
b0 d
b10 #
b10 >
b10 +
b10 c
b1 B
b11001 [
b0 Y
b1100011 G
b1 F
b1100 =
b1100 Q
b11111110000000001001110011100011 4
b11111110000000001001110011100011 M
b11111110000000001001110011100011 P
b11000 .
b11000 T
b1100 -
b1100 W
b10100 ,
b10100 O
b10100 R
b10100 S
b10100 U
b10 ]
1"
#140
0"
#150
b10 9
b10 @
b10 E
b101 '
b101 Z
0/
1)
07
b10 ;
b10 D
b10 H
b0 (
b0 V
b0 f
b1000010 I
b0 5
b0 N
b0 e
b10 <
b10 ?
b101 8
b101 A
b101 J
b10 *
b10 K
b10 d
b11 #
b11 >
b11 +
b11 c
06
b0 B
0C
b10 [
b1 Y
b10 X
b110011 G
b0 F
b10000 =
b10000 Q
b100010000000100110011 4
b100010000000100110011 M
b100010000000100110011 P
b10000 .
b10000 T
b1100 -
b1100 W
b1100 ,
b1100 O
b1100 R
b1100 S
b1100 U
1"
#160
0"
#170
1:
b11 ;
b11 D
b11 H
b1111111111111111111111111111111111111111111111111111111111111110 (
b1111111111111111111111111111111111111111111111111111111111111110 V
b1111111111111111111111111111111111111111111111111111111111111110 f
b10 9
b10 @
b10 E
b101000011 I
b1111111111111111111111111111111111111111111111111111111111111111 5
b1111111111111111111111111111111111111111111111111111111111111111 N
b1111111111111111111111111111111111111111111111111111111111111111 e
0&
1$
0%
b1 '
b1 Z
b1111111111111111111111111111111111111111111111111111111111111111 <
b1111111111111111111111111111111111111111111111111111111111111111 ?
b1 8
b1 A
b1 J
bx *
bx K
bx d
b10 #
b10 >
b10 +
b10 c
1C
b1 [
b11111 Y
b1 X
b10011 G
b10100 =
b10100 Q
b11111111111100001000000010010011 4
b11111111111100001000000010010011 M
b11111111111100001000000010010011 P
b10100 .
b10100 T
b1110 -
b1110 W
b10000 ,
b10000 O
b10000 R
b10000 S
b10000 U
b101 ^
1"
#180
0"
#190
16
0$
0:
x/
0)
17
b1 ;
b1 D
b1 H
b1111111111111111111111111111111111111111111111111111111111111000 (
b1111111111111111111111111111111111111111111111111111111111111000 V
b1111111111111111111111111111111111111111111111111111111111111000 f
b0 <
b0 ?
b110 9
b110 @
b110 E
b0x0001001 I
b1111111111111111111111111111111111111111111111111111111111111100 5
b1111111111111111111111111111111111111111111111111111111111111100 N
b1111111111111111111111111111111111111111111111111111111111111100 e
0&
bx '
bx Z
b1 8
b1 A
b1 J
b0 *
b0 K
b0 d
b1 #
b1 >
b1 +
b1 c
b1 B
b11001 [
b0 Y
b1100011 G
b1 F
b1100 =
b1100 Q
b11111110000000001001110011100011 4
b11111110000000001001110011100011 M
b11111110000000001001110011100011 P
b1 ]
b11000 .
b11000 T
b1100 -
b1100 W
b10100 ,
b10100 O
b10100 R
b10100 S
b10100 U
1"
#200
0"
#210
b10 9
b10 @
b10 E
b110 '
b110 Z
0/
1)
07
b10 ;
b10 D
b10 H
b0 (
b0 V
b0 f
b1000010 I
b0 5
b0 N
b0 e
b1 <
b1 ?
b110 8
b110 A
b110 J
b1 *
b1 K
b1 d
b101 #
b101 >
b101 +
b101 c
06
b0 B
0C
b10 [
b1 Y
b10 X
b110011 G
b0 F
b10000 =
b10000 Q
b100010000000100110011 4
b100010000000100110011 M
b100010000000100110011 P
b10000 .
b10000 T
b1100 -
b1100 W
b1100 ,
b1100 O
b1100 R
b1100 S
b1100 U
1"
#220
0"
#230
1:
b11 ;
b11 D
b11 H
b1111111111111111111111111111111111111111111111111111111111111110 (
b1111111111111111111111111111111111111111111111111111111111111110 V
b1111111111111111111111111111111111111111111111111111111111111110 f
b10 9
b10 @
b10 E
b101000011 I
b1111111111111111111111111111111111111111111111111111111111111111 5
b1111111111111111111111111111111111111111111111111111111111111111 N
b1111111111111111111111111111111111111111111111111111111111111111 e
1&
1$
0%
b0 '
b0 Z
b1111111111111111111111111111111111111111111111111111111111111111 <
b1111111111111111111111111111111111111111111111111111111111111111 ?
b0 8
b0 A
b0 J
bx *
bx K
bx d
b1 #
b1 >
b1 +
b1 c
1C
b1 [
b11111 Y
b1 X
b10011 G
b10100 =
b10100 Q
b11111111111100001000000010010011 4
b11111111111100001000000010010011 M
b11111111111100001000000010010011 P
b110 ^
b10100 .
b10100 T
b1110 -
b1110 W
b10000 ,
b10000 O
b10000 R
b10000 S
b10000 U
1"
#240
0"
#250
0$
06
0:
x/
0)
17
b1 ;
b1 D
b1 H
b1111111111111111111111111111111111111111111111111111111111111000 (
b1111111111111111111111111111111111111111111111111111111111111000 V
b1111111111111111111111111111111111111111111111111111111111111000 f
b0 <
b0 ?
b110 9
b110 @
b110 E
b0x0001001 I
b1111111111111111111111111111111111111111111111111111111111111100 5
b1111111111111111111111111111111111111111111111111111111111111100 N
b1111111111111111111111111111111111111111111111111111111111111100 e
1&
bx '
bx Z
b0 8
b0 A
b0 J
b0 *
b0 K
b0 d
b0 #
b0 >
b0 +
b0 c
b1 B
b11001 [
b0 Y
b1100011 G
b1 F
b11000 =
b11000 Q
b11111110000000001001110011100011 4
b11111110000000001001110011100011 M
b11111110000000001001110011100011 P
b11000 .
b11000 T
b1100 -
b1100 W
b10100 ,
b10100 O
b10100 R
b10100 S
b10100 U
b0 ]
1"
#260
0"
#270
x:
x)
x1
x0
x7
x3
bx ;
bx D
bx H
b0 (
b0 V
b0 f
bx I
b0 5
b0 N
b0 e
x&
bx <
bx ?
x$
x%
bx 8
bx A
bx J
bx *
bx K
bx d
bx #
bx >
bx +
bx c
bx B
xC
bx [
bx Y
bx X
bx G
bx F
b11x00 =
b11x00 Q
bx 4
bx M
bx P
b11100 .
b11100 T
b11000 -
b11000 W
b11000 ,
b11000 O
b11000 R
b11000 S
b11000 U
1"
#280
0"
#290
bx =
bx Q
bx .
bx T
bx -
bx W
b11x00 ,
b11x00 O
b11x00 R
b11x00 S
b11x00 U
1"
#300
0"
#310
bx ,
bx O
bx R
bx S
bx U
1"
